Not using cached read wrapper
Started task graph with 5 named threads and 35 total threads with 3 sets of task threads.
Stats thread started at 0.197276
ICU TimeZone Detection - Raw Offset: +2:00, Platform Override: ''
Loading text-based GConfig....
Mounting plugin MeshPainting
Mounting plugin XGEController
Mounting plugin Paper2D
Mounting plugin LiveLink
Mounting plugin AISupport
Mounting plugin EnvironmentQueryEditor
Mounting plugin LightPropagationVolume
Mounting plugin GameplayCameras
Mounting plugin CameraShakePreviewer
Mounting plugin AnimationSharing
Mounting plugin CodeLiteSourceCodeAccess
Mounting plugin CLionSourceCodeAccess
Mounting plugin GitSourceControl
Mounting plugin OodleData
Mounting plugin KDevelopSourceCodeAccess
Mounting plugin NullSourceCodeAccess
Mounting plugin PerforceSourceControl
Mounting plugin PixWinPlugin
Mounting plugin RiderSourceCodeAccess
Mounting plugin TextureFormatOodle
Mounting plugin PluginUtils
Mounting plugin SubversionSourceControl
Mounting plugin PropertyAccessNode
Mounting plugin PlasticSourceControl
Mounting plugin OodleNetwork
Mounting plugin UObjectPlugin
Mounting plugin VisualStudioSourceCodeAccess
Mounting plugin XCodeSourceCodeAccess
Mounting plugin VisualStudioCodeSourceCodeAccess
Mounting plugin DatasmithContent
Mounting plugin Niagara
Mounting plugin AlembicImporter
Mounting plugin VariantManagerContent
Mounting plugin AutomationUtils
Mounting plugin BackChannel
Mounting plugin ChaosEditor
Mounting plugin ChaosClothEditor
Mounting plugin ChaosSolverPlugin
Mounting plugin ChaosCloth
Mounting plugin AssetManagerEditor
Mounting plugin ChaosNiagara
Mounting plugin CharacterAI
Mounting plugin CryptoKeys
Mounting plugin CurveEditorTools
Mounting plugin DataValidation
Mounting plugin FacialAnimation
Mounting plugin GameplayTagsEditor
Mounting plugin GeometryMode
Mounting plugin MacGraphicsSwitching
Mounting plugin MaterialAnalyzer
Mounting plugin PluginBrowser
Mounting plugin MobileLauncherProfileWizard
Mounting plugin SpeedTreeImporter
Mounting plugin GeometryCache
Mounting plugin GeometryProcessing
Mounting plugin GeometryCollectionPlugin
Mounting plugin MotoSynth
Mounting plugin OpenImageDenoise
Mounting plugin PlatformCrypto
Mounting plugin PlanarCut
Mounting plugin PythonScriptPlugin
Mounting plugin ProxyLODPlugin
Mounting plugin LuminPlatformFeatures
Mounting plugin MagicLeap
Mounting plugin MagicLeapLightEstimation
Mounting plugin MagicLeapMedia
Mounting plugin MagicLeapPassableWorld
Mounting plugin MLSDK
Mounting plugin SkeletalReduction
Mounting plugin AndroidMedia
Mounting plugin AvfMedia
Mounting plugin ImgMedia
Mounting plugin MediaCompositing
Mounting plugin MediaPlayerEditor
Mounting plugin WmfMedia
Mounting plugin WebMMedia
Mounting plugin TcpMessaging
Mounting plugin UdpMessaging
Mounting plugin ActorSequence
Mounting plugin LevelSequenceEditor
Mounting plugin MatineeToLevelSequence
Mounting plugin TemplateSequence
Mounting plugin OnlineSubsystem
Mounting plugin OnlineSubsystemNull
Mounting plugin OnlineSubsystemUtils
Mounting plugin LauncherChunkInstaller
Mounting plugin ActorLayerUtilities
Mounting plugin AndroidDeviceProfileSelector
Mounting plugin AndroidPermission
Mounting plugin AndroidMoviePlayer
Mounting plugin AppleMoviePlayer
Mounting plugin AppleImageUtils
Mounting plugin ArchVisCharacter
Mounting plugin AssetTags
Mounting plugin AudioCapture
Mounting plugin ChunkDownloader
Mounting plugin CableComponent
Mounting plugin CustomMeshComponent
Mounting plugin AudioSynesthesia
Mounting plugin EditableMesh
Mounting plugin ExampleDeviceProfileSelector
Mounting plugin GoogleCloudMessaging
Mounting plugin GooglePAD
Mounting plugin IOSDeviceProfileSelector
Mounting plugin LinuxDeviceProfileSelector
Mounting plugin LocationServicesBPLibrary
Mounting plugin MobilePatchingUtils
Mounting plugin OpenXR
Mounting plugin OpenXREyeTracker
Mounting plugin ScreenshotTools
Mounting plugin OpenXRHandTracking
Mounting plugin PostSplashScreen
Mounting plugin PhysXVehicles
Mounting plugin ProceduralMeshComponent
Mounting plugin PropertyAccessEditor
Mounting plugin SignificanceManager
Mounting plugin RuntimePhysXCooking
Mounting plugin SoundFields
Mounting plugin Synthesis
Mounting plugin WebMMoviePlayer
Mounting plugin WindowsMoviePlayer
Mounting plugin Takes
Mounting plugin ContentBrowserClassDataSource
Mounting plugin ContentBrowserAssetDataSource
Mounting plugin ContentBrowserFileDataSource
Mounting plugin OnlineSubsystemGooglePlay
Mounting plugin OnlineSubsystemIOS
Mounting plugin OculusVR
Mounting plugin SteamVR
PIX capture plugin failed to initialize! Check that the process is launched from PIX.
Using libcurl 7.55.1-DEV
 - built for x86_64-pc-win32
 - supports SSL with OpenSSL/1.1.1
 - supports HTTP deflate (compression) using libz 1.2.8
 - other features:
     CURL_VERSION_SSL
     CURL_VERSION_LIBZ
     CURL_VERSION_IPV6
     CURL_VERSION_ASYNCHDNS
     CURL_VERSION_LARGEFILE
     CURL_VERSION_IDN
 CurlRequestOptions (configurable via config and command line):
 - bVerifyPeer = true  - Libcurl will verify peer certificate
 - bUseHttpProxy = false  - Libcurl will NOT use HTTP proxy
 - bDontReuseConnections = false  - Libcurl will reuse connections
 - MaxHostConnections = 16  - Libcurl will limit the number of connections to a host
 - LocalHostAddr = Default
 - BufferSize = 65536
OSS: Creating online subsystem instance for: NULL
WinSock: version 1.1 (2.2), MaxSocks=32767, MaxUdp=65467
OSS: TryLoadSubsystemAndSetDefault: Loaded subsystem for module [NULL]
OculusPlugin initialized successfully
Failed initializing OVRPlugin 1.59.0
Build: ++UE4+Release-4.27-CL-18319896
Engine Version: 4.27.2-18319896+++UE4+Release-4.27
Compatible Engine Version: 4.27.0-17155196+++UE4+Release-4.27
Net CL: 17155196
OS: Windows 10 (Release 2009) (), CPU: AMD Ryzen 5 5600X 6-Core Processor             , GPU: AMD Radeon RX 6500 XT
Compiled (64-bit): Nov 30 2021 07:12:08
Compiled with Visual C++: 19.24.28315.00
Build Configuration: Development
Branch Name: ++UE4+Release-4.27
Command Line:  -skipcompile
Base Directory: C:/Program Files/Epic Games/UE_4.27/Engine/Binaries/Win64/
Allocator: TBB
Installed Engine Build: 1
Number of dev versions registered: 29
  Dev-Blueprints (B0D832E4-1F89-4F0D-ACCF-7EB736FD4AA2): 10
  Dev-Build (E1C64328-A22C-4D53-A36C-8E866417BD8C): 0
  Dev-Core (375EC13C-06E4-48FB-B500-84F0262A717E): 4
  Dev-Editor (E4B068ED-F494-42E9-A231-DA0B2E46BB41): 40
  Dev-Framework (CFFC743F-43B0-4480-9391-14DF171D2073): 37
  Dev-Mobile (B02B49B5-BB20-44E9-A304-32B752E40360): 3
  Dev-Networking (A4E4105C-59A1-49B5-A7C5-40C4547EDFEE): 0
  Dev-Online (39C831C9-5AE6-47DC-9A44-9C173E1C8E7C): 0
  Dev-Physics (78F01B33-EBEA-4F98-B9B4-84EACCB95AA2): 14
  Dev-Platform (6631380F-2D4D-43E0-8009-CF276956A95A): 0
  Dev-Rendering (12F88B9F-8875-4AFC-A67C-D90C383ABD29): 45
  Dev-Sequencer (7B5AE74C-D270-4C10-A958-57980B212A5A): 13
  Dev-VR (D7296918-1DD6-4BDD-9DE2-64A83CC13884): 3
  Dev-LoadTimes (C2A15278-BFE7-4AFE-6C17-90FF531DF755): 1
  Private-Geometry (6EACA3D4-40EC-4CC1-B786-8BED09428FC5): 3
  Dev-AnimPhys (29E575DD-E0A3-4627-9D10-D276232CDCEA): 17
  Dev-Anim (AF43A65D-7FD3-4947-9873-3E8ED9C1BB05): 15
  Dev-ReflectionCapture (6B266CEC-1EC7-4B8F-A30B-E4D90942FC07): 1
  Dev-Automation (0DF73D61-A23F-47EA-B727-89E90C41499A): 1
  FortniteMain (601D1886-AC64-4F84-AA16-D3DE0DEAC7D6): 47
  FortniteRelease (E7086368-6B23-4C58-8439-1B7016265E91): 1
  Dev-Enterprise (9DFFBCD6-494F-0158-E221-12823C92A888): 10
  Dev-Niagara (F2AED0AC-9AFE-416F-8664-AA7FFA26D6FC): 1
  Dev-Destruction (174F1F0B-B4C6-45A5-B13F-2EE8D0FB917D): 10
  Dev-Physics-Ext (35F94A83-E258-406C-A318-09F59610247C): 41
  Dev-PhysicsMaterial-Chaos (B68FC16E-8B1B-42E2-B453-215C058844FE): 1
  Dev-CineCamera (B2E18506-4273-CFC2-A54E-F4BB758BBA07): 1
  Dev-VirtualProduction (64F58936-FD1B-42BA-BA96-7289D5D0FA4E): 1
  Dev-MediaFramework (6F0ED827-A609-4895-9C91-998D90180EA4): 2
Presizing for max 25165824 objects, including 0 objects not considered by GC, pre-allocating 0 bytes for permanent pool.
Applying CVar settings from Section [/Script/Engine.StreamingSettings] File [C:/Users/Georgie/Documents/Unreal Projects/TpsGame/Saved/Config/Windows/Engine.ini]
Setting CVar [[s.MinBulkDataSizeForAsyncLoading:131072]]
Setting CVar [[s.AsyncLoadingThreadEnabled:0]]
Setting CVar [[s.EventDrivenLoaderEnabled:1]]
Setting CVar [[s.WarnIfTimeLimitExceeded:0]]
Setting CVar [[s.TimeLimitExceededMultiplier:1.5]]
Setting CVar [[s.TimeLimitExceededMinTime:0.005]]
Setting CVar [[s.UseBackgroundLevelStreaming:1]]
Setting CVar [[s.PriorityAsyncLoadingExtraTime:15.0]]
Setting CVar [[s.LevelStreamingActorsUpdateTimeLimit:5.0]]
Setting CVar [[s.PriorityLevelStreamingActorsUpdateExtraTime:5.0]]
Setting CVar [[s.LevelStreamingComponentsRegistrationGranularity:10]]
Setting CVar [[s.UnregisterComponentsTimeLimit:1.0]]
Setting CVar [[s.LevelStreamingComponentsUnregistrationGranularity:5]]
Setting CVar [[s.FlushStreamingOnExit:1]]
Object subsystem initialized
Setting CVar [[con.DebugEarlyDefault:1]]
Setting CVar [[r.setres:1280x720]]
Setting CVar [[r.VSync:0]]
Setting CVar [[r.RHICmdBypass:0]]
Applying CVar settings from Section [/Script/Engine.RendererSettings] File [C:/Users/Georgie/Documents/Unreal Projects/TpsGame/Saved/Config/Windows/Engine.ini]
Setting CVar [[r.GPUCrashDebugging:0]]
Setting CVar [[r.Mobile.ReflectionCaptureCompression:1]]
Setting CVar [[r.NormalMapsForStaticLighting:1]]
Setting CVar [[r.SSGI.Enable:1]]
Applying CVar settings from Section [/Script/Engine.RendererOverrideSettings] File [C:/Users/Georgie/Documents/Unreal Projects/TpsGame/Saved/Config/Windows/Engine.ini]
Applying CVar settings from Section [/Script/Engine.StreamingSettings] File [C:/Users/Georgie/Documents/Unreal Projects/TpsGame/Saved/Config/Windows/Engine.ini]
Setting CVar [[s.MinBulkDataSizeForAsyncLoading:131072]]
Setting CVar [[s.AsyncLoadingThreadEnabled:0]]
Setting CVar [[s.EventDrivenLoaderEnabled:1]]
Setting CVar [[s.WarnIfTimeLimitExceeded:0]]
Setting CVar [[s.TimeLimitExceededMultiplier:1.5]]
Setting CVar [[s.TimeLimitExceededMinTime:0.005]]
Setting CVar [[s.UseBackgroundLevelStreaming:1]]
Setting CVar [[s.PriorityAsyncLoadingExtraTime:15.0]]
Setting CVar [[s.LevelStreamingActorsUpdateTimeLimit:5.0]]
Setting CVar [[s.PriorityLevelStreamingActorsUpdateExtraTime:5.0]]
Setting CVar [[s.LevelStreamingComponentsRegistrationGranularity:10]]
Setting CVar [[s.UnregisterComponentsTimeLimit:1.0]]
Setting CVar [[s.LevelStreamingComponentsUnregistrationGranularity:5]]
Setting CVar [[s.FlushStreamingOnExit:1]]
Applying CVar settings from Section [/Script/Engine.GarbageCollectionSettings] File [C:/Users/Georgie/Documents/Unreal Projects/TpsGame/Saved/Config/Windows/Engine.ini]
Setting CVar [[gc.MaxObjectsNotConsideredByGC:1]]
Setting CVar [[gc.SizeOfPermanentObjectPool:0]]
Setting CVar [[gc.FlushStreamingOnGC:0]]
Setting CVar [[gc.NumRetriesBeforeForcingGC:10]]
Setting CVar [[gc.AllowParallelGC:1]]
Setting CVar [[gc.TimeBetweenPurgingPendingKillObjects:61.1]]
Setting CVar [[gc.MaxObjectsInEditor:25165824]]
Setting CVar [[gc.IncrementalBeginDestroyEnabled:1]]
Setting CVar [[gc.CreateGCClusters:1]]
Setting CVar [[gc.MinGCClusterSize:5]]
Setting CVar [[gc.ActorClusteringEnabled:0]]
Setting CVar [[gc.BlueprintClusteringEnabled:0]]
Setting CVar [[gc.UseDisregardForGCOnDedicatedServers:0]]
Setting CVar [[gc.MultithreadedDestructionEnabled:1]]
Applying CVar settings from Section [/Script/Engine.NetworkSettings] File [C:/Users/Georgie/Documents/Unreal Projects/TpsGame/Saved/Config/Windows/Engine.ini]
Applying CVar settings from Section [/Script/UnrealEd.CookerSettings] File [C:/Users/Georgie/Documents/Unreal Projects/TpsGame/Saved/Config/Windows/Engine.ini]
Applying CVar settings from Section [ViewDistanceQuality@3] File [C:/Users/Georgie/Documents/Unreal Projects/TpsGame/Saved/Config/Windows/Scalability.ini]
Setting CVar [[r.SkeletalMeshLODBias:0]]
Setting CVar [[r.ViewDistanceScale:1.0]]
Applying CVar settings from Section [AntiAliasingQuality@3] File [C:/Users/Georgie/Documents/Unreal Projects/TpsGame/Saved/Config/Windows/Scalability.ini]
Setting CVar [[r.PostProcessAAQuality:4]]
Applying CVar settings from Section [ShadowQuality@3] File [C:/Users/Georgie/Documents/Unreal Projects/TpsGame/Saved/Config/Windows/Scalability.ini]
Setting CVar [[r.LightFunctionQuality:1]]
Setting CVar [[r.ShadowQuality:5]]
Setting CVar [[r.Shadow.CSM.MaxCascades:10]]
Setting CVar [[r.Shadow.MaxResolution:2048]]
Setting CVar [[r.Shadow.MaxCSMResolution:2048]]
Setting CVar [[r.Shadow.RadiusThreshold:0.01]]
Setting CVar [[r.Shadow.DistanceScale:1.0]]
Setting CVar [[r.Shadow.CSM.TransitionScale:1.0]]
Setting CVar [[r.Shadow.PreShadowResolutionFactor:1.0]]
Setting CVar [[r.DistanceFieldShadowing:1]]
Setting CVar [[r.DistanceFieldAO:1]]
Setting CVar [[r.AOQuality:2]]
Setting CVar [[r.VolumetricFog:1]]
Setting CVar [[r.VolumetricFog.GridPixelSize:8]]
Setting CVar [[r.VolumetricFog.GridSizeZ:128]]
Setting CVar [[r.VolumetricFog.HistoryMissSupersampleCount:4]]
Setting CVar [[r.LightMaxDrawDistanceScale:1]]
Setting CVar [[r.CapsuleShadows:1]]
Applying CVar settings from Section [PostProcessQuality@3] File [C:/Users/Georgie/Documents/Unreal Projects/TpsGame/Saved/Config/Windows/Scalability.ini]
Setting CVar [[r.MotionBlurQuality:4]]
Setting CVar [[r.AmbientOcclusionMipLevelFactor:0.4]]
Setting CVar [[r.AmbientOcclusionMaxQuality:100]]
Setting CVar [[r.AmbientOcclusionLevels:-1]]
Setting CVar [[r.AmbientOcclusionRadiusScale:1.0]]
Setting CVar [[r.DepthOfFieldQuality:2]]
Setting CVar [[r.RenderTargetPoolMin:400]]
Setting CVar [[r.LensFlareQuality:2]]
Setting CVar [[r.SceneColorFringeQuality:1]]
Setting CVar [[r.EyeAdaptationQuality:2]]
Setting CVar [[r.BloomQuality:5]]
Setting CVar [[r.FastBlurThreshold:100]]
Setting CVar [[r.Upscale.Quality:3]]
Setting CVar [[r.Tonemapper.GrainQuantization:1]]
Setting CVar [[r.LightShaftQuality:1]]
Setting CVar [[r.Filter.SizeScale:1]]
Setting CVar [[r.Tonemapper.Quality:5]]
Setting CVar [[r.DOF.Gather.AccumulatorQuality:1        ; higher gathering accumulator quality]]
Setting CVar [[r.DOF.Gather.PostfilterMethod:1          ; Median3x3 postfilering method]]
Setting CVar [[r.DOF.Gather.EnableBokehSettings:0       ; no bokeh simulation when gathering]]
Setting CVar [[r.DOF.Gather.RingCount:4                 ; medium number of samples when gathering]]
Setting CVar [[r.DOF.Scatter.ForegroundCompositing:1    ; additive foreground scattering]]
Setting CVar [[r.DOF.Scatter.BackgroundCompositing:2    ; additive background scattering]]
Setting CVar [[r.DOF.Scatter.EnableBokehSettings:1      ; bokeh simulation when scattering]]
Setting CVar [[r.DOF.Scatter.MaxSpriteRatio:0.1         ; only a maximum of 10% of scattered bokeh]]
Setting CVar [[r.DOF.Recombine.Quality:1                ; cheap slight out of focus]]
Setting CVar [[r.DOF.Recombine.EnableBokehSettings:0    ; no bokeh simulation on slight out of focus]]
Setting CVar [[r.DOF.TemporalAAQuality:1                ; more stable temporal accumulation]]
Setting CVar [[r.DOF.Kernel.MaxForegroundRadius:0.025]]
Setting CVar [[r.DOF.Kernel.MaxBackgroundRadius:0.025]]
Applying CVar settings from Section [TextureQuality@3] File [C:/Users/Georgie/Documents/Unreal Projects/TpsGame/Saved/Config/Windows/Scalability.ini]
Setting CVar [[r.Streaming.MipBias:0]]
Setting CVar [[r.Streaming.AmortizeCPUToGPUCopy:0]]
Setting CVar [[r.Streaming.MaxNumTexturesToStreamPerFrame:0]]
Setting CVar [[r.Streaming.Boost:1]]
Setting CVar [[r.MaxAnisotropy:8]]
Setting CVar [[r.VT.MaxAnisotropy:8]]
Setting CVar [[r.Streaming.LimitPoolSizeToVRAM:0]]
Setting CVar [[r.Streaming.PoolSize:1000]]
Setting CVar [[r.Streaming.MaxEffectiveScreenSize:0]]
Applying CVar settings from Section [EffectsQuality@3] File [C:/Users/Georgie/Documents/Unreal Projects/TpsGame/Saved/Config/Windows/Scalability.ini]
Setting CVar [[r.TranslucencyLightingVolumeDim:64]]
Setting CVar [[r.RefractionQuality:2]]
Setting CVar [[r.SSR.Quality:3]]
Setting CVar [[r.SSR.HalfResSceneColor:0]]
Setting CVar [[r.SceneColorFormat:4]]
Setting CVar [[r.DetailMode:2]]
Setting CVar [[r.TranslucencyVolumeBlur:1]]
Setting CVar [[r.MaterialQualityLevel:1 ; High quality]]
Setting CVar [[r.AnisotropicMaterials:1]]
Setting CVar [[r.SSS.Scale:1]]
Setting CVar [[r.SSS.SampleSet:2]]
Setting CVar [[r.SSS.Quality:1]]
Setting CVar [[r.SSS.HalfRes:0]]
Setting CVar [[r.SSGI.Quality:3]]
Setting CVar [[r.EmitterSpawnRateScale:1.0]]
Setting CVar [[r.ParticleLightQuality:2]]
Setting CVar [[r.SkyAtmosphere.AerialPerspectiveLUT.FastApplyOnOpaque:1 ; Always have FastSkyLUT 1 in this case to avoid wrong sky]]
Setting CVar [[r.SkyAtmosphere.AerialPerspectiveLUT.SampleCountMaxPerSlice:4]]
Setting CVar [[r.SkyAtmosphere.AerialPerspectiveLUT.DepthResolution:16.0]]
Setting CVar [[r.SkyAtmosphere.FastSkyLUT:1]]
Setting CVar [[r.SkyAtmosphere.FastSkyLUT.SampleCountMin:4.0]]
Setting CVar [[r.SkyAtmosphere.FastSkyLUT.SampleCountMax:128.0]]
Setting CVar [[r.SkyAtmosphere.SampleCountMin:4.0]]
Setting CVar [[r.SkyAtmosphere.SampleCountMax:128.0]]
Setting CVar [[r.SkyAtmosphere.TransmittanceLUT.UseSmallFormat:0]]
Setting CVar [[r.SkyAtmosphere.TransmittanceLUT.SampleCount:10.0]]
Setting CVar [[r.SkyAtmosphere.MultiScatteringLUT.SampleCount:15.0]]
Setting CVar [[r.SkyLight.RealTimeReflectionCapture:1]]
Applying CVar settings from Section [FoliageQuality@3] File [C:/Users/Georgie/Documents/Unreal Projects/TpsGame/Saved/Config/Windows/Scalability.ini]
Setting CVar [[foliage.DensityScale:1.0]]
Setting CVar [[grass.DensityScale:1.0]]
Applying CVar settings from Section [ShadingQuality@3] File [C:/Users/Georgie/Documents/Unreal Projects/TpsGame/Saved/Config/Windows/Scalability.ini]
Setting CVar [[r.HairStrands.SkyLighting.IntegrationType:2]]
Setting CVar [[r.HairStrands.SkyAO.SampleCount:4]]
Setting CVar [[r.HairStrands.Visibility.MSAA.SamplePerPixel:4]]
Selected Device Profile: [Windows]
Applying CVar settings loaded from the selected device profile: [Windows]
Platform has ~ 16 GB [17055453184 / 17179869184 / 16], which maps to Larger [LargestMinGB=32, LargerMinGB=12, DefaultMinGB=8, SmallerMinGB=6, SmallestMinGB=0)
Going up to parent DeviceProfile []
Applying CVar settings from Section [ViewDistanceQuality@Cine] File [C:/Users/Georgie/Documents/Unreal Projects/TpsGame/Saved/Config/Windows/Scalability.ini]
Setting CVar [[r.SkeletalMeshLODBias:0]]
Setting CVar [[r.ViewDistanceScale:10.0]]
Applying CVar settings from Section [AntiAliasingQuality@Cine] File [C:/Users/Georgie/Documents/Unreal Projects/TpsGame/Saved/Config/Windows/Scalability.ini]
Setting CVar [[r.PostProcessAAQuality:6]]
Applying CVar settings from Section [ShadowQuality@Cine] File [C:/Users/Georgie/Documents/Unreal Projects/TpsGame/Saved/Config/Windows/Scalability.ini]
Setting CVar [[r.LightFunctionQuality:1]]
Setting CVar [[r.ShadowQuality:5]]
Setting CVar [[r.Shadow.CSM.MaxCascades:10]]
Setting CVar [[r.Shadow.MaxResolution:4096]]
Setting CVar [[r.Shadow.MaxCSMResolution:4096]]
Setting CVar [[r.Shadow.RadiusThreshold:0]]
Setting CVar [[r.Shadow.DistanceScale:1.0]]
Setting CVar [[r.Shadow.CSM.TransitionScale:1.0]]
Setting CVar [[r.Shadow.PreShadowResolutionFactor:1.0]]
Setting CVar [[r.DistanceFieldShadowing:1]]
Setting CVar [[r.DistanceFieldAO:1]]
Setting CVar [[r.AOQuality:2]]
Setting CVar [[r.VolumetricFog:1]]
Setting CVar [[r.VolumetricFog.GridPixelSize:4]]
Setting CVar [[r.VolumetricFog.GridSizeZ:128]]
Setting CVar [[r.VolumetricFog.HistoryMissSupersampleCount:16]]
Setting CVar [[r.LightMaxDrawDistanceScale:1]]
Setting CVar [[r.CapsuleShadows:1]]
Applying CVar settings from Section [PostProcessQuality@Cine] File [C:/Users/Georgie/Documents/Unreal Projects/TpsGame/Saved/Config/Windows/Scalability.ini]
Setting CVar [[r.MotionBlurQuality:4]]
Setting CVar [[r.AmbientOcclusionMipLevelFactor:0.4]]
Setting CVar [[r.AmbientOcclusionMaxQuality:100]]
Setting CVar [[r.AmbientOcclusionLevels:-1]]
Setting CVar [[r.AmbientOcclusionRadiusScale:1.0]]
Setting CVar [[r.GTAO.Numangles:4]]
Setting CVar [[r.DepthOfFieldQuality:4]]
Setting CVar [[r.RenderTargetPoolMin:1000]]
Setting CVar [[r.LensFlareQuality:3]]
Setting CVar [[r.SceneColorFringeQuality:1]]
Setting CVar [[r.EyeAdaptationQuality:2]]
Setting CVar [[r.BloomQuality:5]]
Setting CVar [[r.FastBlurThreshold:100]]
Setting CVar [[r.Upscale.Quality:3]]
Setting CVar [[r.Tonemapper.GrainQuantization:1]]
Setting CVar [[r.LightShaftQuality:1]]
Setting CVar [[r.Filter.SizeScale:1]]
Setting CVar [[r.Tonemapper.Quality:5]]
Setting CVar [[r.DOF.Gather.AccumulatorQuality:1        ; higher gathering accumulator quality]]
Setting CVar [[r.DOF.Gather.PostfilterMethod:1          ; Median3x3 postfilering method]]
Setting CVar [[r.DOF.Gather.EnableBokehSettings:1       ; bokeh simulation when gathering]]
Setting CVar [[r.DOF.Gather.RingCount:5                 ; high number of samples when gathering]]
Setting CVar [[r.DOF.Scatter.ForegroundCompositing:1    ; additive foreground scattering]]
Setting CVar [[r.DOF.Scatter.BackgroundCompositing:2    ; background scattering occlusion]]
Setting CVar [[r.DOF.Scatter.EnableBokehSettings:1      ; no bokeh simulation when scattering]]
Setting CVar [[r.DOF.Scatter.MaxSpriteRatio:0.25        ; only a maximum of 10% of scattered bokeh]]
Setting CVar [[r.DOF.Recombine.Quality:2                ; highest slight out of focus]]
Setting CVar [[r.DOF.Recombine.EnableBokehSettings:1    ; bokeh simulation on slight out of focus]]
Setting CVar [[r.DOF.TemporalAAQuality:1                ; more stable temporal accumulation]]
Setting CVar [[r.DOF.Kernel.MaxForegroundRadius:0.025]]
Setting CVar [[r.DOF.Kernel.MaxBackgroundRadius:0.025]]
Applying CVar settings from Section [TextureQuality@Cine] File [C:/Users/Georgie/Documents/Unreal Projects/TpsGame/Saved/Config/Windows/Scalability.ini]
Setting CVar [[r.Streaming.MipBias:0]]
Setting CVar [[r.Streaming.AmortizeCPUToGPUCopy:0]]
Setting CVar [[r.Streaming.MaxNumTexturesToStreamPerFrame:0]]
Setting CVar [[r.Streaming.Boost:1]]
Setting CVar [[r.MaxAnisotropy:8]]
Setting CVar [[r.VT.MaxAnisotropy:8]]
Setting CVar [[r.Streaming.LimitPoolSizeToVRAM:0]]
Setting CVar [[r.Streaming.PoolSize:3000]]
Setting CVar [[r.Streaming.MaxEffectiveScreenSize:0]]
Applying CVar settings from Section [EffectsQuality@Cine] File [C:/Users/Georgie/Documents/Unreal Projects/TpsGame/Saved/Config/Windows/Scalability.ini]
Setting CVar [[r.TranslucencyLightingVolumeDim:64]]
Setting CVar [[r.RefractionQuality:2]]
Setting CVar [[r.SSR.Quality:4]]
Setting CVar [[r.SSR.HalfResSceneColor:0]]
Setting CVar [[r.SceneColorFormat:4]]
Setting CVar [[r.DetailMode:2]]
Setting CVar [[r.TranslucencyVolumeBlur:1]]
Setting CVar [[r.MaterialQualityLevel:1 ; High quality]]
Setting CVar [[r.AnisotropicMaterials:1]]
Setting CVar [[r.SSS.Scale:1]]
Setting CVar [[r.SSS.SampleSet:2]]
Setting CVar [[r.SSS.Quality:1]]
Setting CVar [[r.SSS.HalfRes:0]]
Setting CVar [[r.SSGI.Quality:4]]
Setting CVar [[r.EmitterSpawnRateScale:1.0]]
Setting CVar [[r.ParticleLightQuality:2]]
Setting CVar [[r.SkyAtmosphere.AerialPerspectiveLUT.FastApplyOnOpaque:0]]
Setting CVar [[r.SkyAtmosphere.AerialPerspectiveLUT.SampleCountMaxPerSlice:8]]
Setting CVar [[r.SkyAtmosphere.AerialPerspectiveLUT.DepthResolution:32.0]]
Setting CVar [[r.SkyAtmosphere.FastSkyLUT:0]]
Setting CVar [[r.SkyAtmosphere.FastSkyLUT.SampleCountMin:4.0]]
Setting CVar [[r.SkyAtmosphere.FastSkyLUT.SampleCountMax:256.0]]
Setting CVar [[r.SkyAtmosphere.SampleCountMin:8.0]]
Setting CVar [[r.SkyAtmosphere.SampleCountMax:256.0]]
Setting CVar [[r.SkyAtmosphere.TransmittanceLUT.UseSmallFormat:0]]
Setting CVar [[r.SkyAtmosphere.TransmittanceLUT.SampleCount:30.0]]
Setting CVar [[r.SkyAtmosphere.MultiScatteringLUT.SampleCount:20.0]]
Setting CVar [[r.SkyLight.RealTimeReflectionCapture:1]]
Applying CVar settings from Section [FoliageQuality@Cine] File [C:/Users/Georgie/Documents/Unreal Projects/TpsGame/Saved/Config/Windows/Scalability.ini]
Setting CVar [[foliage.DensityScale:1.0]]
Setting CVar [[grass.DensityScale:1.0]]
Applying CVar settings from Section [ShadingQuality@Cine] File [C:/Users/Georgie/Documents/Unreal Projects/TpsGame/Saved/Config/Windows/Scalability.ini]
Setting CVar [[r.HairStrands.SkyLighting.IntegrationType:0]]
Setting CVar [[r.HairStrands.SkyAO.SampleCount:8]]
Setting CVar [[r.HairStrands.Visibility.MSAA.SamplePerPixel:8]]
Applying CVar settings from Section [Startup] File [../../../Engine/Config/ConsoleVariables.ini]
Setting CVar [[net.UseAdaptiveNetUpdateFrequency:0]]
Setting CVar [[p.chaos.AllowCreatePhysxBodies:1]]
Setting CVar [[fx.SkipVectorVMBackendOptimizations:1]]
Applying CVar settings from Section [ConsoleVariables] File [C:/Users/Georgie/Documents/Unreal Projects/TpsGame/Saved/Config/Windows/Engine.ini]
Applying CVar settings from Section [ConsoleVariables] File [C:/Users/Georgie/Documents/Unreal Projects/TpsGame/Saved/Config/Windows/Editor.ini]
Computer: ASUSGAMINGPC
User: Georgie
CPU Page size=4096, Cores=6
High frequency timer resolution =10.000000 MHz
Memory total: Physical=15.9GB (16GB approx)
Platform Memory Stats for Windows
Process Physical Memory: 144.49 MB used, 144.49 MB peak
Process Virtual Memory: 123.88 MB used, 123.88 MB peak
Physical Memory: 8040.70 MB used,  8224.65 MB free, 16265.35 MB total
Virtual Memory: 134203280.00 MB used,  14444.20 MB free, 134217728.00 MB total
WindowsPlatformFeatures enabled
Physics initialised using underlying interface: PhysX
Using OS detected language (en-US).
Using OS detected locale (el-GR).
No specific localization for 'en-US' exists, so the 'en' localization will be used.
Setting process to per monitor DPI aware
IME system deactivated.
New Slate User Created.  User Index 0, Is Virtual User: 0
Slate User Registered.  User Index 0, Is Virtual User: 0
Loaded GFSDK_Aftermath_Lib.x64.dll
Failed to initialize OpenVR with code 110
D3D11 min allowed feature level: 11_0
D3D11 max allowed feature level: 11_0
D3D11 adapters:
   0. 'AMD Radeon RX 6500 XT' (Feature Level 11_0)
      4051/0/8132 MB DedicatedVideo/DedicatedSystem/SharedSystem, Outputs:1, VendorId:0x1002
   1. 'Microsoft Basic Render Driver' (Feature Level 11_0)
      0/0/8132 MB DedicatedVideo/DedicatedSystem/SharedSystem, Outputs:0, VendorId:0x1414
Chosen D3D11 Adapter:
    Description : AMD Radeon RX 6500 XT
    VendorId    : 1002
    DeviceId    : 743f
    SubSysId    : e4571da2
    Revision    : 00c1
    DedicatedVideoMemory : 4248002560 bytes
    DedicatedSystemMemory : 0 bytes
    SharedSystemMemory : 8527726592 bytes
    AdapterLuid : 0 73976
Creating new Direct3DDevice
    GPU DeviceId: 0x743f (for the marketing name, search the web for "GPU Device Id")
EnumDisplayDevices:
   0. 'AMD Radeon RX 6500 XT' (P:1 D:1)
   1. 'AMD Radeon RX 6500 XT' (P:0 D:0)
   2. 'AMD Radeon RX 6500 XT' (P:0 D:0)
DebugString: FoundDriverCount:3 
    Adapter Name: AMD Radeon RX 6500 XT
  Driver Version: AMD Software: Adrenalin Edition 23.4.3 (internal:31.0.14051.5006, unified:31.0.14051.5006)
     Driver Date: 4-20-2023
Texture pool is 2410 MB (70% of 3443 MB)
Creating D3DDevice with AMD AGS, using adapter:
    Description : AMD Radeon RX 6500 XT
    VendorId    : 1002
    DeviceId    : 743f
    SubSysId    : e4571da2
    Revision    : 00c1
    DedicatedVideoMemory : 4248002560 bytes
    DedicatedSystemMemory : 0 bytes
    SharedSystemMemory : 8527726592 bytes
    AdapterLuid : 0 73976
Created device via AGS, feature level 11_0, supported extensions 1fffffbf.
RHI has support for 64 bit atomics
Async texture creation enabled
Array index from any shader is supported
HDR output is supported on display 0 (AMD Device: 0x0, Display: 0x0).
GPU Timing Frequency: 100.000000 (Debug: 2 1)
Loaded TargetPlatform 'AllDesktop'
Loaded TargetPlatform 'Android'
Loaded TargetPlatform 'Android_ASTC'
Loaded TargetPlatform 'Android_DXT'
Loaded TargetPlatform 'Android_ETC2'
Loaded TargetPlatform 'AndroidClient'
Loaded TargetPlatform 'Android_ASTCClient'
Loaded TargetPlatform 'Android_DXTClient'
Loaded TargetPlatform 'Android_ETC2Client'
Loaded TargetPlatform 'Android_Multi'
Loaded TargetPlatform 'Android_MultiClient'
Loaded TargetPlatform 'IOSClient'
Loaded TargetPlatform 'IOS'
Loaded TargetPlatform 'Linux'
Loaded TargetPlatform 'LinuxNoEditor'
Loaded TargetPlatform 'LinuxClient'
Loaded TargetPlatform 'LinuxServer'
Loaded TargetPlatform 'LinuxAArch64NoEditor'
Loaded TargetPlatform 'LinuxAArch64Client'
Loaded TargetPlatform 'LinuxAArch64Server'
Loaded TargetPlatform 'Lumin'
Loaded TargetPlatform 'LuminClient'
Loaded TargetPlatform 'MacNoEditor'
Loaded TargetPlatform 'Mac'
Loaded TargetPlatform 'MacClient'
Loaded TargetPlatform 'MacServer'
Loaded TargetPlatform 'TVOSClient'
Loaded TargetPlatform 'TVOS'
Loaded TargetPlatform 'WindowsNoEditor'
Loaded TargetPlatform 'Windows'
Loaded TargetPlatform 'WindowsClient'
Loaded TargetPlatform 'WindowsServer'
Building Assets For Windows
Lib vorbis DLL was dynamically loaded.
Oodle Texture 2.9.0 init RDO Off
Ray tracing is disabled. Reason: r.RayTracing=0.
Guid format shader working directory is -17 characters bigger than the processId version (../../../../../../Users/Georgie/Documents/Unreal Projects/TpsGame/Intermediate/Shaders/WorkingDirectory/1212/).
Cleaned the shader compiler working directory 'C:/Users/Georgie/AppData/Local/Temp/UnrealShaderWorkingDir/FAF989B2439911B05E4A1B8C0CCC6BBE/'.
Cannot use XGE Controller as Incredibuild is not installed on this machine.
Cannot use XGE Shader Compiler as Incredibuild is not installed on this machine.
Using Local Shader Compiler.
Max Cache Size: 512 MB
Loaded boot cache 0.04s 105MB C:/Users/Georgie/AppData/Local/UnrealEngine/4.27/DerivedDataCache/Boot.ddc.
Loaded Boot cache: C:/Users/Georgie/AppData/Local/UnrealEngine/4.27/DerivedDataCache/Boot.ddc
FDerivedDataBackendGraph:  Pak pak cache file ../../../../../../Users/Georgie/Documents/Unreal Projects/TpsGame/DerivedDataCache/DDC.ddp not found, will not use a pak cache.
Unable to find inner node Pak for hierarchical cache Hierarchy.
FDerivedDataBackendGraph:  CompressedPak pak cache file ../../../../../../Users/Georgie/Documents/Unreal Projects/TpsGame/DerivedDataCache/Compressed.ddp not found, will not use a pak cache.
Unable to find inner node CompressedPak for hierarchical cache Hierarchy.
Pak cache opened for reading ../../../Engine/DerivedDataCache/Compressed.ddp.
FDerivedDataBackendGraph:  EnterprisePak pak cache file ../../../Enterprise/DerivedDataCache/Compressed.ddp not found, will not use a pak cache.
Unable to find inner node EnterprisePak for hierarchical cache Hierarchy.
Speed tests for C:/Users/Georgie/AppData/Local/UnrealEngine/Common/DerivedDataCache took 0.01 seconds
Performance to C:/Users/Georgie/AppData/Local/UnrealEngine/Common/DerivedDataCache: Latency=0.02ms. RandomReadSpeed=1557.53MBs, RandomWriteSpeed=194.71MBs. Assigned SpeedClass 'Local'
Using Local data cache path C:/Users/Georgie/AppData/Local/UnrealEngine/Common/DerivedDataCache: Writable
Shared data cache path not found in *engine.ini, will not use an Shared cache.
Unable to find inner node Shared for hierarchical cache Hierarchy.
Using FreeType 2.10.0
SlateFontServices - WITH_FREETYPE: 1, WITH_HARFBUZZ: 1
FAssetRegistry took 0.0025 seconds to start up
Selected Device Profile: [Windows]
Active device profile: [000002463D98B600][000002463C5A87C0 49] Windows
Profiles: [000002463D98B600][000002463C5A87C0 49] Windows, [000002463D93CB00][000002463A80C940 49] WindowsNoEditor, [000002463D988B00][000002463C5ACA80 49] WindowsServer, [000002463D93EB00][000002463A810BC0 49] WindowsClient, [000002463D98AA00][000002463A814D00 49] IOS, [000002463D93F100][000002463A81CE80 49] iPadAir, [000002463D98B000][000002463A821000 49] iPadAir2, [000002463D8EF500][000002463E5C52C0 49] IPadPro, [000002463D8EF600][000002463E5C1300 49] iPadAir3, [000002463D988F00][000002463E5C9480 49] iPadAir4, [000002463D8ED000][000002463E5CD600 49] iPadMini2, [000002463D98B900][000002463E5D1780 49] iPadMini3, [000002463D8EC600][000002463E5D5900 49] iPadMini4, [000002463D988A00][000002463E5E3A80 49] iPadMini5, [000002463D92E600][000002463E5EA1C0 49] iPhone6, [000002463D92E700][000002463E5E6200 49] iPodTouch6, [000002463D8ED400][000002463E5F24C0 49] iPhone7, [000002463D8ED700][000002463E5EE500 49] iPodTouch7, [000002463D92CF00][000002463E5F6680 49] iPhone5S, [000002463D8EFA00][000002463E5FA800 49] iPhone6Plus, [000002463D92C600][000002463E5FE980 49] iPhone6S, [000002463D8EE800][000002463E602B00 49] iPhone6SPlus, [000002463D92D400][000002463A818C40 49] iPhone7Plus, [000002463D8ECC00][000002463E606D80 49] iPhoneSE, [000002463D92E200][000002463E60AEC0 49] iPhone8, [000002463D8EEB00][000002463E613040 49] iPhone8Plus, [000002463D92EA00][000002463E6171C0 49] iPhoneX, [000002463D8EE300][000002463E61B340 49] iPhoneXS, [000002463D92D700][000002463E61F4C0 49] iPhoneXSMax, [000002463D8EE000][000002463E623640 49] iPhoneXR, [000002463D92C700][000002463E6277C0 49] iPhone11, [000002463D8EF800][000002463E62B940 49] iPhone11Pro, [000002463D92F900][000002463E62FAC0 49] iPhone11ProMax, [000002463D8EE900][000002463E6320C0 49] iPhoneSE2, [000002463D92D100][000002463E636240 49] iPhone12Mini, [000002463D8EF000][000002463E63A3C0 49] iPhone12, [000002463D92D600][000002463E63E540 49] iPhone12Pro, [000002463D8ED600][000002463E6426C0 49] iPhone12ProMax, [000002463D92E400][000002463E646840 49] iPadPro105, [000002463D8EEF00][000002463E64A9C0 49] iPadPro129, [000002463D92CD00][000002463E64EB40 49] iPadPro97, [000002463D8EC400][000002463E652CC0 49] iPadPro2_129, [000002463D92D900][000002463E60EE00 49] iPad5, [000002463D8ECA00][000002463E656F40 49] iPad6, [000002463D92F200][000002463E65B080 49] iPad7, [000002463D8ED900][000002463E65F1C0 49] iPad8, [000002463D92E900][000002463E667340 49] iPadPro11, [000002463D8EFB00][000002463E66B4C0 49] iPadPro2_11, [000002463D92CE00][000002463E66F640 49] iPadPro3_129, [000002463D8EFD00][000002463E6737C0 49] iPadPro4_129, [000002463D92DB00][000002463E677940 49] AppleTV, [000002463D8EFF00][000002463E67BAC0 49] AppleTV4K, [000002463D93D000][000002463E67E0C0 49] TVOS, [000002463C9C5100][000002463E682240 49] Mac, [000002463D93D300][000002463E6863C0 49] MacClient, [000002463C9C5000][000002463E68A540 49] MacNoEditor, [000002463D93EA00][000002463E68E6C0 49] MacServer, [000002463C9C4600][000002463E692840 49] Linux, [000002463D93F500][000002463E6969C0 49] LinuxAArch64, [000002463C9C4700][000002463E69AB40 49] LinuxNoEditor, [000002463D93CD00][000002463E69ECC0 49] LinuxAArch64NoEditor, [000002463C9C4900][000002463E6A2E40 49] LinuxClient, [000002463D93EC00][000002463E662F80 49] LinuxAArch64Client, [000002463C9C5600][000002463E6A70C0 49] LinuxServer, [000002463D93E600][000002463E6AB200 49] LinuxAArch64Server, [000002463C9C6D00][000002463E6AF340 49] Android, [000002463D93D800][000002463E6B74C0 49] Android_Low, [000002463C9C4F00][000002463E6BB640 49] Android_Mid, [000002463D93E000][000002463E6BF7C0 49] Android_High, [000002463C9C5B00][000002463E6C3940 49] Android_Default, [000002463D93C500][000002463E6C7AC0 49] Android_Adreno4xx, [000002463C9C5400][000002463E6CA0C0 49] Android_Adreno5xx_Low, [000002463D93E400][000002463E6CE240 49] Android_Adreno5xx, [000002463C9C5700][000002463E6D23C0 49] Android_Adreno6xx, [000002463D93D900][000002463E6DA540 49] Android_Adreno6xx_Vulkan, [000002463C9C6A00][000002463E6DE6C0 49] Android_Mali_T6xx, [000002463D8ECF00][000002463E6E2840 49] Android_Mali_T7xx, [000002463C9C6100][000002463E6E69C0 49] Android_Mali_T8xx, [000002463D8EC500][000002463E6EAB40 49] Android_Mali_G71, [000002463C9C6000][000002463E6EECC0 49] Android_Mali_G72, [000002463D8ECD00][000002463E6F2E40 49] Android_Mali_G72_Vulkan, [000002463C9C4400][000002463E6F6FC0 49] Android_Mali_G76, [000002463D8EFC00][000002463E6FB140 49] Android_Mali_G76_Vulkan, [000002463C9C6300][000002463E6B3280 49] Android_Mali_G77, [000002463D8EE200][000002463E6FF3C0 49] Android_Mali_G77_Vulkan, [000002463C9C6800][000002463E703500 49] Android_Mali_G78, [000002463D8ECB00][000002463E70B680 49] Android_Mali_G78_Vulkan, [000002463C9C4500][000002463E70F800 49] Android_Mali_G710, [000002463D8EC800][000002463E713980 49] Android_Mali_G710_Vulkan, [000002463C9C5900][000002463E717B00 49] Android_Vulkan_SM5, [000002463D8EE100][000002463E71A100 49] Android_PowerVR_G6xxx, [000002463C9C5F00][000002463E71E280 49] Android_PowerVR_GT7xxx, [000002463D8EF700][000002463E722400 49] Android_PowerVR_GE8xxx, [000002463C9C6E00][000002463E726580 49] Android_PowerVR_GM9xxx, [000002463D8EDC00][000002463E72A700 49] Android_PowerVR_GM9xxx_Vulkan, [000002463C9C7100][000002463E72E880 49] Android_TegraK1, [000002463D8EDB00][000002463E732A00 49] Android_Unknown_Vulkan, [000002463C9C5D00][000002463E736B80 49] Lumin, [000002463D8ED100][000002463E73AD00 49] Lumin_Desktop, [000002463D92FC00][000002463E73EE80 49] HoloLens, 
Using QuadricMeshReduction for automatic static mesh reduction
Using SimplygonMeshReduction for automatic skeletal mesh reduction
Using ProxyLODMeshReduction for automatic mesh merging
No distributed automatic mesh merging module available
No distributed automatic mesh merging module available
TpsGame 1.0.0, NetCL: 17155196, EngineNetVer: 17, GameNetVer: 0 (Checksum: 2278266066)
Default maximum texture size for cubemaps generated from long-lat sources has been changed from 512 to unlimited. In order to preserve old behaiour for '/Engine/MapTemplates/Sky/DaylightAmbientCubemap.DaylightAmbientCubemap', its maximum texture size has been explicitly set to 512.
PokeAHoleMaterial loaded successfully
17178 objects as part of root set at end of initial load.
4302048 out of 0 bytes used by permanent object pool.
CloseDisregardForGC: 0/0 objects in disregard for GC pool
Niagara Debugger Client Initialized | Session: 3A56956442547C00B73E2E8BDAD61F6D | Instance: 1975B6DF456CCC49471736A9B664C3A5 (ASUSGAMINGPC-1212).
Using Python 3.7.7
Initializing TcpMessaging bridge
Initializing bridge on interface 0.0.0.0:0 to multicast group 230.0.0.1:6666.


Script Stack (0 frames):

FPlatformStackWalk::StackWalkAndDump -  0.037 s
=== Handled ensure: ===

Ensure condition failed: this->IsBound() [File:C:\Program Files\Epic Games\UE_4.27\Engine\Source\Runtime\Core\Public\Delegates/DelegateSignatureImpl.inl] [Line: 1028]
Unable to bind delegate to 'CollisionSphereHit' (function might not be marked as a UFUNCTION or object may be pending kill)
Stack: 
[Callstack] 0x00007ff9a3402608 UE4Editor-TpsGame.dll!DispatchCheckVerify<bool,<lambda_e93d7c8d15003e8b5fb4aeb57bd35861> >() [C:\Program Files\Epic Games\UE_4.27\Engine\Source\Runtime\Core\Public\Misc\AssertionMacros.h:164]
[Callstack] 0x00007ff9a33f7b2a UE4Editor-TpsGame.dll!AProjectileBase::AProjectileBase() [C:\Users\Georgie\Documents\Unreal Projects\TpsGame\Source\TpsGame\ProjectileBase.cpp:15]
[Callstack] 0x00007ff9c37461d3 UE4Editor-CoreUObject.dll!UnknownFunction []
[Callstack] 0x00007ff9c3a68faf UE4Editor-CoreUObject.dll!UnknownFunction []
[Callstack] 0x00007ff9c3a45411 UE4Editor-CoreUObject.dll!UnknownFunction []
[Callstack] 0x00007ff9c390ddc5 UE4Editor-CoreUObject.dll!UnknownFunction []
[Callstack] 0x00007ff9c4121bea UE4Editor-Core.dll!UnknownFunction []
[Callstack] 0x00007ff9c41415a3 UE4Editor-Core.dll!UnknownFunction []
[Callstack] 0x00007ff9c0186433 UE4Editor-Projects.dll!UnknownFunction []
[Callstack] 0x00007ff9c018674f UE4Editor-Projects.dll!UnknownFunction []
[Callstack] 0x00007ff7cea45642 UE4Editor.exe!UnknownFunction []
[Callstack] 0x00007ff7cea49000 UE4Editor.exe!UnknownFunction []
[Callstack] 0x00007ff7cea40d2c UE4Editor.exe!UnknownFunction []
[Callstack] 0x00007ff7cea410ba UE4Editor.exe!UnknownFunction []
[Callstack] 0x00007ff7cea440dd UE4Editor.exe!UnknownFunction []
[Callstack] 0x00007ff7cea55984 UE4Editor.exe!UnknownFunction []
[Callstack] 0x00007ff7cea5853a UE4Editor.exe!UnknownFunction []
[Callstack] 0x00007ffa80d9269d KERNEL32.DLL!UnknownFunction []
[Callstack] 0x00007ffa81f2a9f8 ntdll.dll!UnknownFunction []

               SubmitErrorReport -  0.000 s
                   SendNewReport -  0.630 s
            FDebug::EnsureFailed -  0.676 s


Script Stack (0 frames):

FPlatformStackWalk::StackWalkAndDump -  0.014 s
=== Handled ensure: ===

Ensure condition failed: this->IsBound() [File:C:\Program Files\Epic Games\UE_4.27\Engine\Source\Runtime\Core\Public\Delegates/DelegateSignatureImpl.inl] [Line: 1028]
Unable to bind delegate to 'CollisionSphereBeginOverlap' (function might not be marked as a UFUNCTION or object may be pending kill)
Stack: 
[Callstack] 0x00007ff9a3402558 UE4Editor-TpsGame.dll!DispatchCheckVerify<bool,<lambda_d567bd25eb1b1523da3c48ddf02a42e3> >() [C:\Program Files\Epic Games\UE_4.27\Engine\Source\Runtime\Core\Public\Misc\AssertionMacros.h:164]
[Callstack] 0x00007ff9a33f7d19 UE4Editor-TpsGame.dll!AProjectileBase::AProjectileBase() [C:\Users\Georgie\Documents\Unreal Projects\TpsGame\Source\TpsGame\ProjectileBase.cpp:16]
[Callstack] 0x00007ff9c37461d3 UE4Editor-CoreUObject.dll!UnknownFunction []
[Callstack] 0x00007ff9c3a68faf UE4Editor-CoreUObject.dll!UnknownFunction []
[Callstack] 0x00007ff9c3a45411 UE4Editor-CoreUObject.dll!UnknownFunction []
[Callstack] 0x00007ff9c390ddc5 UE4Editor-CoreUObject.dll!UnknownFunction []
[Callstack] 0x00007ff9c4121bea UE4Editor-Core.dll!UnknownFunction []
[Callstack] 0x00007ff9c41415a3 UE4Editor-Core.dll!UnknownFunction []
[Callstack] 0x00007ff9c0186433 UE4Editor-Projects.dll!UnknownFunction []
[Callstack] 0x00007ff9c018674f UE4Editor-Projects.dll!UnknownFunction []
[Callstack] 0x00007ff7cea45642 UE4Editor.exe!UnknownFunction []
[Callstack] 0x00007ff7cea49000 UE4Editor.exe!UnknownFunction []
[Callstack] 0x00007ff7cea40d2c UE4Editor.exe!UnknownFunction []
[Callstack] 0x00007ff7cea410ba UE4Editor.exe!UnknownFunction []
[Callstack] 0x00007ff7cea440dd UE4Editor.exe!UnknownFunction []
[Callstack] 0x00007ff7cea55984 UE4Editor.exe!UnknownFunction []
[Callstack] 0x00007ff7cea5853a UE4Editor.exe!UnknownFunction []
[Callstack] 0x00007ffa80d9269d KERNEL32.DLL!UnknownFunction []
[Callstack] 0x00007ffa81f2a9f8 ntdll.dll!UnknownFunction []

               SubmitErrorReport -  0.000 s
