﻿Log file open, 05/17/23 16:27:15
LogWindows: Failed to load 'aqProf.dll' (GetLastError=126)
LogWindows: File 'aqProf.dll' does not exist
LogWindows: Failed to load 'VtuneApi.dll' (GetLastError=126)
LogWindows: File 'VtuneApi.dll' does not exist
LogWindows: Failed to load 'VtuneApi32e.dll' (GetLastError=126)
LogWindows: File 'VtuneApi32e.dll' does not exist
LogConsoleResponse: Display: Failed to find resolution value strings in scalability ini. Falling back to default.
LogConsoleResponse: Display: Failed to find resolution value strings in scalability ini. Falling back to default.
LogInit: Display: Running engine for game: TpsGame
LogPlatformFile: Not using cached read wrapper
LogTaskGraph: Started task graph with 5 named threads and 35 total threads with 3 sets of task threads.
LogStats: Stats thread started at 0.199242
LogICUInternationalization: ICU TimeZone Detection - Raw Offset: +2:00, Platform Override: ''
LogInit: Display: Loading text-based GConfig....
LogPluginManager: Mounting plugin MeshPainting
LogPluginManager: Mounting plugin XGEController
LogPluginManager: Mounting plugin Paper2D
LogPluginManager: Mounting plugin LiveLink
LogPluginManager: Mounting plugin EnvironmentQueryEditor
LogPluginManager: Mounting plugin LightPropagationVolume
LogPluginManager: Mounting plugin AISupport
LogPluginManager: Mounting plugin CameraShakePreviewer
LogPluginManager: Mounting plugin GameplayCameras
LogPluginManager: Mounting plugin AnimationSharing
LogPluginManager: Mounting plugin NullSourceCodeAccess
LogPluginManager: Mounting plugin GitSourceControl
LogPluginManager: Mounting plugin CLionSourceCodeAccess
LogPluginManager: Mounting plugin CodeLiteSourceCodeAccess
LogPluginManager: Mounting plugin KDevelopSourceCodeAccess
LogPluginManager: Mounting plugin PerforceSourceControl
LogPluginManager: Mounting plugin PixWinPlugin
LogPluginManager: Mounting plugin PlasticSourceControl
LogPluginManager: Mounting plugin PropertyAccessNode
LogPluginManager: Mounting plugin RiderSourceCodeAccess
LogPluginManager: Mounting plugin PluginUtils
LogPluginManager: Mounting plugin TextureFormatOodle
LogPluginManager: Mounting plugin SubversionSourceControl
LogPluginManager: Mounting plugin UObjectPlugin
LogPluginManager: Mounting plugin AssetManagerEditor
LogPluginManager: Mounting plugin CryptoKeys
LogPluginManager: Mounting plugin DataValidation
LogPluginManager: Mounting plugin CurveEditorTools
LogPluginManager: Mounting plugin GeometryMode
LogPluginManager: Mounting plugin GameplayTagsEditor
LogPluginManager: Mounting plugin FacialAnimation
LogPluginManager: Mounting plugin MacGraphicsSwitching
LogPluginManager: Mounting plugin MaterialAnalyzer
LogPluginManager: Mounting plugin PluginBrowser
LogPluginManager: Mounting plugin MobileLauncherProfileWizard
LogPluginManager: Mounting plugin SpeedTreeImporter
LogPluginManager: Mounting plugin VisualStudioCodeSourceCodeAccess
LogPluginManager: Mounting plugin OodleData
LogPluginManager: Mounting plugin VisualStudioSourceCodeAccess
LogPluginManager: Mounting plugin Niagara
LogPluginManager: Mounting plugin XCodeSourceCodeAccess
LogPluginManager: Mounting plugin OodleNetwork
LogPluginManager: Mounting plugin DatasmithContent
LogPluginManager: Mounting plugin VariantManagerContent
LogPluginManager: Mounting plugin AutomationUtils
LogPluginManager: Mounting plugin AlembicImporter
LogPluginManager: Mounting plugin BackChannel
LogPluginManager: Mounting plugin ChaosCloth
LogPluginManager: Mounting plugin ChaosEditor
LogPluginManager: Mounting plugin ChaosClothEditor
LogPluginManager: Mounting plugin ChaosNiagara
LogPluginManager: Mounting plugin CharacterAI
LogPluginManager: Mounting plugin ChaosSolverPlugin
LogPluginManager: Mounting plugin MagicLeap
LogPluginManager: Mounting plugin LuminPlatformFeatures
LogPluginManager: Mounting plugin MagicLeapLightEstimation
LogPluginManager: Mounting plugin MagicLeapPassableWorld
LogPluginManager: Mounting plugin MagicLeapMedia
LogPluginManager: Mounting plugin MLSDK
LogPluginManager: Mounting plugin GeometryCollectionPlugin
LogPluginManager: Mounting plugin GeometryCache
LogPluginManager: Mounting plugin GeometryProcessing
LogPluginManager: Mounting plugin OpenImageDenoise
LogPluginManager: Mounting plugin MotoSynth
LogPluginManager: Mounting plugin PlanarCut
LogPluginManager: Mounting plugin PlatformCrypto
LogPluginManager: Mounting plugin PythonScriptPlugin
LogPluginManager: Mounting plugin ProxyLODPlugin
LogPluginManager: Mounting plugin AndroidMedia
LogPluginManager: Mounting plugin AvfMedia
LogPluginManager: Mounting plugin ImgMedia
LogPluginManager: Mounting plugin MediaCompositing
LogPluginManager: Mounting plugin MediaPlayerEditor
LogPluginManager: Mounting plugin WmfMedia
LogPluginManager: Mounting plugin WebMMedia
LogPluginManager: Mounting plugin SkeletalReduction
LogPluginManager: Mounting plugin TcpMessaging
LogPluginManager: Mounting plugin UdpMessaging
LogPluginManager: Mounting plugin ActorSequence
LogPluginManager: Mounting plugin LevelSequenceEditor
LogPluginManager: Mounting plugin MatineeToLevelSequence
LogPluginManager: Mounting plugin TemplateSequence
LogPluginManager: Mounting plugin OnlineSubsystem
LogPluginManager: Mounting plugin OnlineSubsystemNull
LogPluginManager: Mounting plugin OnlineSubsystemUtils
LogPluginManager: Mounting plugin ActorLayerUtilities
LogPluginManager: Mounting plugin LauncherChunkInstaller
LogPluginManager: Mounting plugin AndroidMoviePlayer
LogPluginManager: Mounting plugin AndroidPermission
LogPluginManager: Mounting plugin AndroidDeviceProfileSelector
LogPluginManager: Mounting plugin AppleMoviePlayer
LogPluginManager: Mounting plugin AppleImageUtils
LogPluginManager: Mounting plugin AssetTags
LogPluginManager: Mounting plugin AudioSynesthesia
LogPluginManager: Mounting plugin AudioCapture
LogPluginManager: Mounting plugin ChunkDownloader
LogPluginManager: Mounting plugin CableComponent
LogPluginManager: Mounting plugin CustomMeshComponent
LogPluginManager: Mounting plugin EditableMesh
LogPluginManager: Mounting plugin ExampleDeviceProfileSelector
LogPluginManager: Mounting plugin ArchVisCharacter
LogPluginManager: Mounting plugin ScreenshotTools
LogPluginManager: Mounting plugin GoogleCloudMessaging
LogPluginManager: Mounting plugin GooglePAD
LogPluginManager: Mounting plugin LinuxDeviceProfileSelector
LogPluginManager: Mounting plugin IOSDeviceProfileSelector
LogPluginManager: Mounting plugin LocationServicesBPLibrary
LogPluginManager: Mounting plugin MobilePatchingUtils
LogPluginManager: Mounting plugin OpenXR
LogPluginManager: Mounting plugin OpenXREyeTracker
LogPluginManager: Mounting plugin Takes
LogPluginManager: Mounting plugin OpenXRHandTracking
LogPluginManager: Mounting plugin PostSplashScreen
LogPluginManager: Mounting plugin ProceduralMeshComponent
LogPluginManager: Mounting plugin PhysXVehicles
LogPluginManager: Mounting plugin SignificanceManager
LogPluginManager: Mounting plugin PropertyAccessEditor
LogPluginManager: Mounting plugin RuntimePhysXCooking
LogPluginManager: Mounting plugin SoundFields
LogPluginManager: Mounting plugin Synthesis
LogPluginManager: Mounting plugin WebMMoviePlayer
LogPluginManager: Mounting plugin WindowsMoviePlayer
LogPluginManager: Mounting plugin ContentBrowserFileDataSource
LogPluginManager: Mounting plugin ContentBrowserClassDataSource
LogPluginManager: Mounting plugin ContentBrowserAssetDataSource
LogPluginManager: Mounting plugin OnlineSubsystemGooglePlay
LogPluginManager: Mounting plugin OnlineSubsystemIOS
LogPluginManager: Mounting plugin OculusVR
LogPluginManager: Mounting plugin SteamVR
PixWinPlugin: PIX capture plugin failed to initialize! Check that the process is launched from PIX.
LogInit: Using libcurl 7.55.1-DEV
LogInit:  - built for x86_64-pc-win32
LogInit:  - supports SSL with OpenSSL/1.1.1
LogInit:  - supports HTTP deflate (compression) using libz 1.2.8
LogInit:  - other features:
LogInit:      CURL_VERSION_SSL
LogInit:      CURL_VERSION_LIBZ
LogInit:      CURL_VERSION_IPV6
LogInit:      CURL_VERSION_ASYNCHDNS
LogInit:      CURL_VERSION_LARGEFILE
LogInit:      CURL_VERSION_IDN
LogInit:  CurlRequestOptions (configurable via config and command line):
LogInit:  - bVerifyPeer = true  - Libcurl will verify peer certificate
LogInit:  - bUseHttpProxy = false  - Libcurl will NOT use HTTP proxy
LogInit:  - bDontReuseConnections = false  - Libcurl will reuse connections
LogInit:  - MaxHostConnections = 16  - Libcurl will limit the number of connections to a host
LogInit:  - LocalHostAddr = Default
LogInit:  - BufferSize = 65536
LogOnline: OSS: Creating online subsystem instance for: NULL
LogInit: WinSock: version 1.1 (2.2), MaxSocks=32767, MaxUdp=65467
LogOnline: OSS: TryLoadSubsystemAndSetDefault: Loaded subsystem for module [NULL]
LogOculusPluginWrapper: OculusPlugin initialized successfully
LogHMD: Failed initializing OVRPlugin 1.59.0
LogInit: Build: ++UE4+Release-4.27-CL-18319896
LogInit: Engine Version: 4.27.2-18319896+++UE4+Release-4.27
LogInit: Compatible Engine Version: 4.27.0-17155196+++UE4+Release-4.27
LogInit: Net CL: 17155196
LogInit: OS: Windows 10 (Release 2009) (), CPU: AMD Ryzen 5 5600X 6-Core Processor             , GPU: AMD Radeon RX 6500 XT
LogInit: Compiled (64-bit): Nov 30 2021 07:12:08
LogInit: Compiled with Visual C++: 19.24.28315.00
LogInit: Build Configuration: Development
LogInit: Branch Name: ++UE4+Release-4.27
LogInit: Command Line:  /Game/Map/Menu/MenuMap -game -PIEVIACONSOLE -Multiprocess "GameUserSettingsINI=C:/Users/Georgie/Documents/Unreal Projects/TpsGame/Saved/Config/Windows/PIEGameUserSettings0.ini" -MultiprocessSaveConfig -forcepassthrough -messaging -SessionName="Play in Standalone Game" -windowed -ResX=1280 -ResY=720
LogInit: Base Directory: C:/Program Files/Epic Games/UE_4.27/Engine/Binaries/Win64/
LogInit: Allocator: TBB
LogInit: Installed Engine Build: 1
LogDevObjectVersion: Number of dev versions registered: 29
LogDevObjectVersion:   Dev-Blueprints (B0D832E4-1F89-4F0D-ACCF-7EB736FD4AA2): 10
LogDevObjectVersion:   Dev-Build (E1C64328-A22C-4D53-A36C-8E866417BD8C): 0
LogDevObjectVersion:   Dev-Core (375EC13C-06E4-48FB-B500-84F0262A717E): 4
LogDevObjectVersion:   Dev-Editor (E4B068ED-F494-42E9-A231-DA0B2E46BB41): 40
LogDevObjectVersion:   Dev-Framework (CFFC743F-43B0-4480-9391-14DF171D2073): 37
LogDevObjectVersion:   Dev-Mobile (B02B49B5-BB20-44E9-A304-32B752E40360): 3
LogDevObjectVersion:   Dev-Networking (A4E4105C-59A1-49B5-A7C5-40C4547EDFEE): 0
LogDevObjectVersion:   Dev-Online (39C831C9-5AE6-47DC-9A44-9C173E1C8E7C): 0
LogDevObjectVersion:   Dev-Physics (78F01B33-EBEA-4F98-B9B4-84EACCB95AA2): 14
LogDevObjectVersion:   Dev-Platform (6631380F-2D4D-43E0-8009-CF276956A95A): 0
LogDevObjectVersion:   Dev-Rendering (12F88B9F-8875-4AFC-A67C-D90C383ABD29): 45
LogDevObjectVersion:   Dev-Sequencer (7B5AE74C-D270-4C10-A958-57980B212A5A): 13
LogDevObjectVersion:   Dev-VR (D7296918-1DD6-4BDD-9DE2-64A83CC13884): 3
LogDevObjectVersion:   Dev-LoadTimes (C2A15278-BFE7-4AFE-6C17-90FF531DF755): 1
LogDevObjectVersion:   Private-Geometry (6EACA3D4-40EC-4CC1-B786-8BED09428FC5): 3
LogDevObjectVersion:   Dev-AnimPhys (29E575DD-E0A3-4627-9D10-D276232CDCEA): 17
LogDevObjectVersion:   Dev-Anim (AF43A65D-7FD3-4947-9873-3E8ED9C1BB05): 15
LogDevObjectVersion:   Dev-ReflectionCapture (6B266CEC-1EC7-4B8F-A30B-E4D90942FC07): 1
LogDevObjectVersion:   Dev-Automation (0DF73D61-A23F-47EA-B727-89E90C41499A): 1
LogDevObjectVersion:   FortniteMain (601D1886-AC64-4F84-AA16-D3DE0DEAC7D6): 47
LogDevObjectVersion:   FortniteRelease (E7086368-6B23-4C58-8439-1B7016265E91): 1
LogDevObjectVersion:   Dev-Enterprise (9DFFBCD6-494F-0158-E221-12823C92A888): 10
LogDevObjectVersion:   Dev-Niagara (F2AED0AC-9AFE-416F-8664-AA7FFA26D6FC): 1
LogDevObjectVersion:   Dev-Destruction (174F1F0B-B4C6-45A5-B13F-2EE8D0FB917D): 10
LogDevObjectVersion:   Dev-Physics-Ext (35F94A83-E258-406C-A318-09F59610247C): 41
LogDevObjectVersion:   Dev-PhysicsMaterial-Chaos (B68FC16E-8B1B-42E2-B453-215C058844FE): 1
LogDevObjectVersion:   Dev-CineCamera (B2E18506-4273-CFC2-A54E-F4BB758BBA07): 1
LogDevObjectVersion:   Dev-VirtualProduction (64F58936-FD1B-42BA-BA96-7289D5D0FA4E): 1
LogDevObjectVersion:   Dev-MediaFramework (6F0ED827-A609-4895-9C91-998D90180EA4): 2
LogInit: Presizing for max 25165824 objects, including 0 objects not considered by GC, pre-allocating 0 bytes for permanent pool.
LogConfig: Applying CVar settings from Section [/Script/Engine.StreamingSettings] File [C:/Users/Georgie/Documents/Unreal Projects/TpsGame/Saved/Config/Windows/Engine.ini]
LogConfig: Setting CVar [[s.MinBulkDataSizeForAsyncLoading:131072]]
LogConfig: Setting CVar [[s.AsyncLoadingThreadEnabled:0]]
LogConfig: Setting CVar [[s.EventDrivenLoaderEnabled:1]]
LogConfig: Setting CVar [[s.WarnIfTimeLimitExceeded:0]]
LogConfig: Setting CVar [[s.TimeLimitExceededMultiplier:1.5]]
LogConfig: Setting CVar [[s.TimeLimitExceededMinTime:0.005]]
LogConfig: Setting CVar [[s.UseBackgroundLevelStreaming:1]]
LogConfig: Setting CVar [[s.PriorityAsyncLoadingExtraTime:15.0]]
LogConfig: Setting CVar [[s.LevelStreamingActorsUpdateTimeLimit:5.0]]
LogConfig: Setting CVar [[s.PriorityLevelStreamingActorsUpdateExtraTime:5.0]]
LogConfig: Setting CVar [[s.LevelStreamingComponentsRegistrationGranularity:10]]
LogConfig: Setting CVar [[s.UnregisterComponentsTimeLimit:1.0]]
LogConfig: Setting CVar [[s.LevelStreamingComponentsUnregistrationGranularity:5]]
LogConfig: Setting CVar [[s.FlushStreamingOnExit:1]]
LogInit: Object subsystem initialized
LogConfig: Setting CVar [[con.DebugEarlyDefault:1]]
LogConfig: Setting CVar [[r.setres:1280x720]]
[2023.05.17-13.27.15:823][  0]LogConfig: Setting CVar [[con.DebugEarlyDefault:1]]
[2023.05.17-13.27.15:823][  0]LogConfig: Setting CVar [[r.setres:1280x720]]
[2023.05.17-13.27.15:823][  0]LogConfig: Applying CVar settings from Section [/Script/Engine.RendererSettings] File [C:/Users/Georgie/Documents/Unreal Projects/TpsGame/Saved/Config/Windows/Engine.ini]
[2023.05.17-13.27.15:823][  0]LogConfig: Setting CVar [[r.GPUCrashDebugging:0]]
[2023.05.17-13.27.15:823][  0]LogConfig: Setting CVar [[r.Mobile.ReflectionCaptureCompression:1]]
[2023.05.17-13.27.15:823][  0]LogConfig: Setting CVar [[r.NormalMapsForStaticLighting:1]]
[2023.05.17-13.27.15:823][  0]LogConfig: Setting CVar [[r.SSGI.Enable:1]]
[2023.05.17-13.27.15:823][  0]LogConfig: Applying CVar settings from Section [/Script/Engine.RendererOverrideSettings] File [C:/Users/Georgie/Documents/Unreal Projects/TpsGame/Saved/Config/Windows/Engine.ini]
[2023.05.17-13.27.15:823][  0]LogConfig: Applying CVar settings from Section [/Script/Engine.StreamingSettings] File [C:/Users/Georgie/Documents/Unreal Projects/TpsGame/Saved/Config/Windows/Engine.ini]
[2023.05.17-13.27.15:823][  0]LogConfig: Setting CVar [[s.MinBulkDataSizeForAsyncLoading:131072]]
[2023.05.17-13.27.15:823][  0]LogConfig: Setting CVar [[s.AsyncLoadingThreadEnabled:0]]
[2023.05.17-13.27.15:823][  0]LogConfig: Setting CVar [[s.EventDrivenLoaderEnabled:1]]
[2023.05.17-13.27.15:823][  0]LogConfig: Setting CVar [[s.WarnIfTimeLimitExceeded:0]]
[2023.05.17-13.27.15:823][  0]LogConfig: Setting CVar [[s.TimeLimitExceededMultiplier:1.5]]
[2023.05.17-13.27.15:823][  0]LogConfig: Setting CVar [[s.TimeLimitExceededMinTime:0.005]]
[2023.05.17-13.27.15:823][  0]LogConfig: Setting CVar [[s.UseBackgroundLevelStreaming:1]]
[2023.05.17-13.27.15:823][  0]LogConfig: Setting CVar [[s.PriorityAsyncLoadingExtraTime:15.0]]
[2023.05.17-13.27.15:823][  0]LogConfig: Setting CVar [[s.LevelStreamingActorsUpdateTimeLimit:5.0]]
[2023.05.17-13.27.15:823][  0]LogConfig: Setting CVar [[s.PriorityLevelStreamingActorsUpdateExtraTime:5.0]]
[2023.05.17-13.27.15:823][  0]LogConfig: Setting CVar [[s.LevelStreamingComponentsRegistrationGranularity:10]]
[2023.05.17-13.27.15:823][  0]LogConfig: Setting CVar [[s.UnregisterComponentsTimeLimit:1.0]]
[2023.05.17-13.27.15:823][  0]LogConfig: Setting CVar [[s.LevelStreamingComponentsUnregistrationGranularity:5]]
[2023.05.17-13.27.15:823][  0]LogConfig: Setting CVar [[s.FlushStreamingOnExit:1]]
[2023.05.17-13.27.15:823][  0]LogConfig: Applying CVar settings from Section [/Script/Engine.GarbageCollectionSettings] File [C:/Users/Georgie/Documents/Unreal Projects/TpsGame/Saved/Config/Windows/Engine.ini]
[2023.05.17-13.27.15:823][  0]LogConfig: Setting CVar [[gc.MaxObjectsNotConsideredByGC:1]]
[2023.05.17-13.27.15:823][  0]LogConfig: Setting CVar [[gc.SizeOfPermanentObjectPool:0]]
[2023.05.17-13.27.15:823][  0]LogConfig: Setting CVar [[gc.FlushStreamingOnGC:0]]
[2023.05.17-13.27.15:823][  0]LogConfig: Setting CVar [[gc.NumRetriesBeforeForcingGC:10]]
[2023.05.17-13.27.15:823][  0]LogConfig: Setting CVar [[gc.AllowParallelGC:1]]
[2023.05.17-13.27.15:823][  0]LogConfig: Setting CVar [[gc.TimeBetweenPurgingPendingKillObjects:61.1]]
[2023.05.17-13.27.15:823][  0]LogConfig: Setting CVar [[gc.MaxObjectsInEditor:25165824]]
[2023.05.17-13.27.15:823][  0]LogConfig: Setting CVar [[gc.IncrementalBeginDestroyEnabled:1]]
[2023.05.17-13.27.15:823][  0]LogConfig: Setting CVar [[gc.CreateGCClusters:1]]
[2023.05.17-13.27.15:823][  0]LogConfig: Setting CVar [[gc.MinGCClusterSize:5]]
[2023.05.17-13.27.15:823][  0]LogConfig: Setting CVar [[gc.ActorClusteringEnabled:0]]
[2023.05.17-13.27.15:823][  0]LogConfig: Setting CVar [[gc.BlueprintClusteringEnabled:0]]
[2023.05.17-13.27.15:823][  0]LogConfig: Setting CVar [[gc.UseDisregardForGCOnDedicatedServers:0]]
[2023.05.17-13.27.15:823][  0]LogConfig: Setting CVar [[gc.MultithreadedDestructionEnabled:1]]
[2023.05.17-13.27.15:823][  0]LogConfig: Applying CVar settings from Section [/Script/Engine.NetworkSettings] File [C:/Users/Georgie/Documents/Unreal Projects/TpsGame/Saved/Config/Windows/Engine.ini]
[2023.05.17-13.27.15:823][  0]LogConfig: Applying CVar settings from Section [/Script/UnrealEd.CookerSettings] File [C:/Users/Georgie/Documents/Unreal Projects/TpsGame/Saved/Config/Windows/Engine.ini]
[2023.05.17-13.27.15:828][  0]LogConfig: Applying CVar settings from Section [ViewDistanceQuality@3] File [C:/Users/Georgie/Documents/Unreal Projects/TpsGame/Saved/Config/Windows/Scalability.ini]
[2023.05.17-13.27.15:828][  0]LogConfig: Setting CVar [[r.SkeletalMeshLODBias:0]]
[2023.05.17-13.27.15:828][  0]LogConfig: Setting CVar [[r.ViewDistanceScale:1.0]]
[2023.05.17-13.27.15:828][  0]LogConfig: Applying CVar settings from Section [AntiAliasingQuality@3] File [C:/Users/Georgie/Documents/Unreal Projects/TpsGame/Saved/Config/Windows/Scalability.ini]
[2023.05.17-13.27.15:828][  0]LogConfig: Setting CVar [[r.PostProcessAAQuality:4]]
[2023.05.17-13.27.15:828][  0]LogConfig: Applying CVar settings from Section [ShadowQuality@3] File [C:/Users/Georgie/Documents/Unreal Projects/TpsGame/Saved/Config/Windows/Scalability.ini]
[2023.05.17-13.27.15:828][  0]LogConfig: Setting CVar [[r.LightFunctionQuality:1]]
[2023.05.17-13.27.15:828][  0]LogConfig: Setting CVar [[r.ShadowQuality:5]]
[2023.05.17-13.27.15:828][  0]LogConfig: Setting CVar [[r.Shadow.CSM.MaxCascades:10]]
[2023.05.17-13.27.15:828][  0]LogConfig: Setting CVar [[r.Shadow.MaxResolution:2048]]
[2023.05.17-13.27.15:828][  0]LogConfig: Setting CVar [[r.Shadow.MaxCSMResolution:2048]]
[2023.05.17-13.27.15:828][  0]LogConfig: Setting CVar [[r.Shadow.RadiusThreshold:0.01]]
[2023.05.17-13.27.15:828][  0]LogConfig: Setting CVar [[r.Shadow.DistanceScale:1.0]]
[2023.05.17-13.27.15:828][  0]LogConfig: Setting CVar [[r.Shadow.CSM.TransitionScale:1.0]]
[2023.05.17-13.27.15:828][  0]LogConfig: Setting CVar [[r.Shadow.PreShadowResolutionFactor:1.0]]
[2023.05.17-13.27.15:828][  0]LogConfig: Setting CVar [[r.DistanceFieldShadowing:1]]
[2023.05.17-13.27.15:828][  0]LogConfig: Setting CVar [[r.DistanceFieldAO:1]]
[2023.05.17-13.27.15:828][  0]LogConfig: Setting CVar [[r.AOQuality:2]]
[2023.05.17-13.27.15:828][  0]LogConfig: Setting CVar [[r.VolumetricFog:1]]
[2023.05.17-13.27.15:828][  0]LogConfig: Setting CVar [[r.VolumetricFog.GridPixelSize:8]]
[2023.05.17-13.27.15:828][  0]LogConfig: Setting CVar [[r.VolumetricFog.GridSizeZ:128]]
[2023.05.17-13.27.15:829][  0]LogConfig: Setting CVar [[r.VolumetricFog.HistoryMissSupersampleCount:4]]
[2023.05.17-13.27.15:829][  0]LogConfig: Setting CVar [[r.LightMaxDrawDistanceScale:1]]
[2023.05.17-13.27.15:829][  0]LogConfig: Setting CVar [[r.CapsuleShadows:1]]
[2023.05.17-13.27.15:829][  0]LogConfig: Applying CVar settings from Section [PostProcessQuality@3] File [C:/Users/Georgie/Documents/Unreal Projects/TpsGame/Saved/Config/Windows/Scalability.ini]
[2023.05.17-13.27.15:829][  0]LogConfig: Setting CVar [[r.MotionBlurQuality:4]]
[2023.05.17-13.27.15:829][  0]LogConfig: Setting CVar [[r.AmbientOcclusionMipLevelFactor:0.4]]
[2023.05.17-13.27.15:829][  0]LogConfig: Setting CVar [[r.AmbientOcclusionMaxQuality:100]]
[2023.05.17-13.27.15:829][  0]LogConfig: Setting CVar [[r.AmbientOcclusionLevels:-1]]
[2023.05.17-13.27.15:829][  0]LogConfig: Setting CVar [[r.AmbientOcclusionRadiusScale:1.0]]
[2023.05.17-13.27.15:829][  0]LogConfig: Setting CVar [[r.DepthOfFieldQuality:2]]
[2023.05.17-13.27.15:829][  0]LogConfig: Setting CVar [[r.RenderTargetPoolMin:400]]
[2023.05.17-13.27.15:829][  0]LogConfig: Setting CVar [[r.LensFlareQuality:2]]
[2023.05.17-13.27.15:829][  0]LogConfig: Setting CVar [[r.SceneColorFringeQuality:1]]
[2023.05.17-13.27.15:829][  0]LogConfig: Setting CVar [[r.EyeAdaptationQuality:2]]
[2023.05.17-13.27.15:829][  0]LogConfig: Setting CVar [[r.BloomQuality:5]]
[2023.05.17-13.27.15:829][  0]LogConfig: Setting CVar [[r.FastBlurThreshold:100]]
[2023.05.17-13.27.15:829][  0]LogConfig: Setting CVar [[r.Upscale.Quality:3]]
[2023.05.17-13.27.15:829][  0]LogConfig: Setting CVar [[r.Tonemapper.GrainQuantization:1]]
[2023.05.17-13.27.15:829][  0]LogConfig: Setting CVar [[r.LightShaftQuality:1]]
[2023.05.17-13.27.15:829][  0]LogConfig: Setting CVar [[r.Filter.SizeScale:1]]
[2023.05.17-13.27.15:829][  0]LogConfig: Setting CVar [[r.Tonemapper.Quality:5]]
[2023.05.17-13.27.15:829][  0]LogConfig: Setting CVar [[r.DOF.Gather.AccumulatorQuality:1        ; higher gathering accumulator quality]]
[2023.05.17-13.27.15:829][  0]LogConfig: Setting CVar [[r.DOF.Gather.PostfilterMethod:1          ; Median3x3 postfilering method]]
[2023.05.17-13.27.15:829][  0]LogConfig: Setting CVar [[r.DOF.Gather.EnableBokehSettings:0       ; no bokeh simulation when gathering]]
[2023.05.17-13.27.15:829][  0]LogConfig: Setting CVar [[r.DOF.Gather.RingCount:4                 ; medium number of samples when gathering]]
[2023.05.17-13.27.15:829][  0]LogConfig: Setting CVar [[r.DOF.Scatter.ForegroundCompositing:1    ; additive foreground scattering]]
[2023.05.17-13.27.15:829][  0]LogConfig: Setting CVar [[r.DOF.Scatter.BackgroundCompositing:2    ; additive background scattering]]
[2023.05.17-13.27.15:829][  0]LogConfig: Setting CVar [[r.DOF.Scatter.EnableBokehSettings:1      ; bokeh simulation when scattering]]
[2023.05.17-13.27.15:829][  0]LogConfig: Setting CVar [[r.DOF.Scatter.MaxSpriteRatio:0.1         ; only a maximum of 10% of scattered bokeh]]
[2023.05.17-13.27.15:829][  0]LogConfig: Setting CVar [[r.DOF.Recombine.Quality:1                ; cheap slight out of focus]]
[2023.05.17-13.27.15:829][  0]LogConfig: Setting CVar [[r.DOF.Recombine.EnableBokehSettings:0    ; no bokeh simulation on slight out of focus]]
[2023.05.17-13.27.15:829][  0]LogConfig: Setting CVar [[r.DOF.TemporalAAQuality:1                ; more stable temporal accumulation]]
[2023.05.17-13.27.15:829][  0]LogConfig: Setting CVar [[r.DOF.Kernel.MaxForegroundRadius:0.025]]
[2023.05.17-13.27.15:829][  0]LogConfig: Setting CVar [[r.DOF.Kernel.MaxBackgroundRadius:0.025]]
[2023.05.17-13.27.15:829][  0]LogConfig: Applying CVar settings from Section [TextureQuality@3] File [C:/Users/Georgie/Documents/Unreal Projects/TpsGame/Saved/Config/Windows/Scalability.ini]
[2023.05.17-13.27.15:829][  0]LogConfig: Setting CVar [[r.Streaming.MipBias:0]]
[2023.05.17-13.27.15:829][  0]LogConfig: Setting CVar [[r.Streaming.AmortizeCPUToGPUCopy:0]]
[2023.05.17-13.27.15:829][  0]LogConfig: Setting CVar [[r.Streaming.MaxNumTexturesToStreamPerFrame:0]]
[2023.05.17-13.27.15:829][  0]LogConfig: Setting CVar [[r.Streaming.Boost:1]]
[2023.05.17-13.27.15:829][  0]LogConfig: Setting CVar [[r.MaxAnisotropy:8]]
[2023.05.17-13.27.15:829][  0]LogConfig: Setting CVar [[r.VT.MaxAnisotropy:8]]
[2023.05.17-13.27.15:829][  0]LogConfig: Setting CVar [[r.Streaming.LimitPoolSizeToVRAM:0]]
[2023.05.17-13.27.15:829][  0]LogConfig: Setting CVar [[r.Streaming.PoolSize:1000]]
[2023.05.17-13.27.15:829][  0]LogConfig: Setting CVar [[r.Streaming.MaxEffectiveScreenSize:0]]
[2023.05.17-13.27.15:829][  0]LogConfig: Applying CVar settings from Section [EffectsQuality@3] File [C:/Users/Georgie/Documents/Unreal Projects/TpsGame/Saved/Config/Windows/Scalability.ini]
[2023.05.17-13.27.15:829][  0]LogConfig: Setting CVar [[r.TranslucencyLightingVolumeDim:64]]
[2023.05.17-13.27.15:829][  0]LogConfig: Setting CVar [[r.RefractionQuality:2]]
[2023.05.17-13.27.15:829][  0]LogConfig: Setting CVar [[r.SSR.Quality:3]]
[2023.05.17-13.27.15:829][  0]LogConfig: Setting CVar [[r.SSR.HalfResSceneColor:0]]
[2023.05.17-13.27.15:829][  0]LogConfig: Setting CVar [[r.SceneColorFormat:4]]
[2023.05.17-13.27.15:829][  0]LogConfig: Setting CVar [[r.DetailMode:2]]
[2023.05.17-13.27.15:829][  0]LogConfig: Setting CVar [[r.TranslucencyVolumeBlur:1]]
[2023.05.17-13.27.15:829][  0]LogConfig: Setting CVar [[r.MaterialQualityLevel:1 ; High quality]]
[2023.05.17-13.27.15:829][  0]LogConfig: Setting CVar [[r.AnisotropicMaterials:1]]
[2023.05.17-13.27.15:829][  0]LogConfig: Setting CVar [[r.SSS.Scale:1]]
[2023.05.17-13.27.15:829][  0]LogConfig: Setting CVar [[r.SSS.SampleSet:2]]
[2023.05.17-13.27.15:829][  0]LogConfig: Setting CVar [[r.SSS.Quality:1]]
[2023.05.17-13.27.15:829][  0]LogConfig: Setting CVar [[r.SSS.HalfRes:0]]
[2023.05.17-13.27.15:829][  0]LogConfig: Setting CVar [[r.SSGI.Quality:3]]
[2023.05.17-13.27.15:829][  0]LogConfig: Setting CVar [[r.EmitterSpawnRateScale:1.0]]
[2023.05.17-13.27.15:829][  0]LogConfig: Setting CVar [[r.ParticleLightQuality:2]]
[2023.05.17-13.27.15:829][  0]LogConfig: Setting CVar [[r.SkyAtmosphere.AerialPerspectiveLUT.FastApplyOnOpaque:1 ; Always have FastSkyLUT 1 in this case to avoid wrong sky]]
[2023.05.17-13.27.15:829][  0]LogConfig: Setting CVar [[r.SkyAtmosphere.AerialPerspectiveLUT.SampleCountMaxPerSlice:4]]
[2023.05.17-13.27.15:829][  0]LogConfig: Setting CVar [[r.SkyAtmosphere.AerialPerspectiveLUT.DepthResolution:16.0]]
[2023.05.17-13.27.15:829][  0]LogConfig: Setting CVar [[r.SkyAtmosphere.FastSkyLUT:1]]
[2023.05.17-13.27.15:829][  0]LogConfig: Setting CVar [[r.SkyAtmosphere.FastSkyLUT.SampleCountMin:4.0]]
[2023.05.17-13.27.15:829][  0]LogConfig: Setting CVar [[r.SkyAtmosphere.FastSkyLUT.SampleCountMax:128.0]]
[2023.05.17-13.27.15:829][  0]LogConfig: Setting CVar [[r.SkyAtmosphere.SampleCountMin:4.0]]
[2023.05.17-13.27.15:830][  0]LogConfig: Setting CVar [[r.SkyAtmosphere.SampleCountMax:128.0]]
[2023.05.17-13.27.15:830][  0]LogConfig: Setting CVar [[r.SkyAtmosphere.TransmittanceLUT.UseSmallFormat:0]]
[2023.05.17-13.27.15:830][  0]LogConfig: Setting CVar [[r.SkyAtmosphere.TransmittanceLUT.SampleCount:10.0]]
[2023.05.17-13.27.15:830][  0]LogConfig: Setting CVar [[r.SkyAtmosphere.MultiScatteringLUT.SampleCount:15.0]]
[2023.05.17-13.27.15:830][  0]LogConfig: Setting CVar [[r.SkyLight.RealTimeReflectionCapture:1]]
[2023.05.17-13.27.15:830][  0]LogConfig: Applying CVar settings from Section [FoliageQuality@3] File [C:/Users/Georgie/Documents/Unreal Projects/TpsGame/Saved/Config/Windows/Scalability.ini]
[2023.05.17-13.27.15:830][  0]LogConfig: Setting CVar [[foliage.DensityScale:1.0]]
[2023.05.17-13.27.15:830][  0]LogConfig: Setting CVar [[grass.DensityScale:1.0]]
[2023.05.17-13.27.15:830][  0]LogConfig: Applying CVar settings from Section [ShadingQuality@3] File [C:/Users/Georgie/Documents/Unreal Projects/TpsGame/Saved/Config/Windows/Scalability.ini]
[2023.05.17-13.27.15:830][  0]LogConfig: Setting CVar [[r.HairStrands.SkyLighting.IntegrationType:2]]
[2023.05.17-13.27.15:830][  0]LogConfig: Setting CVar [[r.HairStrands.SkyAO.SampleCount:4]]
[2023.05.17-13.27.15:830][  0]LogConfig: Setting CVar [[r.HairStrands.Visibility.MSAA.SamplePerPixel:4]]
[2023.05.17-13.27.15:830][  0]LogInit: Selected Device Profile: [Windows]
[2023.05.17-13.27.15:830][  0]LogInit: Applying CVar settings loaded from the selected device profile: [Windows]
[2023.05.17-13.27.15:830][  0]LogHAL: Display: Platform has ~ 16 GB [17055453184 / 17179869184 / 16], which maps to Larger [LargestMinGB=32, LargerMinGB=12, DefaultMinGB=8, SmallerMinGB=6, SmallestMinGB=0)
[2023.05.17-13.27.15:830][  0]LogInit: Going up to parent DeviceProfile []
[2023.05.17-13.27.15:830][  0]LogConfig: Applying CVar settings from Section [ViewDistanceQuality@3] File [C:/Users/Georgie/Documents/Unreal Projects/TpsGame/Saved/Config/Windows/Scalability.ini]
[2023.05.17-13.27.15:830][  0]LogConfig: Setting CVar [[r.SkeletalMeshLODBias:0]]
[2023.05.17-13.27.15:830][  0]LogConfig: Setting CVar [[r.ViewDistanceScale:1.0]]
[2023.05.17-13.27.15:830][  0]LogConfig: Applying CVar settings from Section [AntiAliasingQuality@3] File [C:/Users/Georgie/Documents/Unreal Projects/TpsGame/Saved/Config/Windows/Scalability.ini]
[2023.05.17-13.27.15:830][  0]LogConfig: Setting CVar [[r.PostProcessAAQuality:4]]
[2023.05.17-13.27.15:830][  0]LogConfig: Applying CVar settings from Section [ShadowQuality@3] File [C:/Users/Georgie/Documents/Unreal Projects/TpsGame/Saved/Config/Windows/Scalability.ini]
[2023.05.17-13.27.15:830][  0]LogConfig: Setting CVar [[r.LightFunctionQuality:1]]
[2023.05.17-13.27.15:830][  0]LogConfig: Setting CVar [[r.ShadowQuality:5]]
[2023.05.17-13.27.15:830][  0]LogConfig: Setting CVar [[r.Shadow.CSM.MaxCascades:10]]
[2023.05.17-13.27.15:830][  0]LogConfig: Setting CVar [[r.Shadow.MaxResolution:2048]]
[2023.05.17-13.27.15:830][  0]LogConfig: Setting CVar [[r.Shadow.MaxCSMResolution:2048]]
[2023.05.17-13.27.15:830][  0]LogConfig: Setting CVar [[r.Shadow.RadiusThreshold:0.01]]
[2023.05.17-13.27.15:830][  0]LogConfig: Setting CVar [[r.Shadow.DistanceScale:1.0]]
[2023.05.17-13.27.15:830][  0]LogConfig: Setting CVar [[r.Shadow.CSM.TransitionScale:1.0]]
[2023.05.17-13.27.15:830][  0]LogConfig: Setting CVar [[r.Shadow.PreShadowResolutionFactor:1.0]]
[2023.05.17-13.27.15:830][  0]LogConfig: Setting CVar [[r.DistanceFieldShadowing:1]]
[2023.05.17-13.27.15:830][  0]LogConfig: Setting CVar [[r.DistanceFieldAO:1]]
[2023.05.17-13.27.15:830][  0]LogConfig: Setting CVar [[r.AOQuality:2]]
[2023.05.17-13.27.15:830][  0]LogConfig: Setting CVar [[r.VolumetricFog:1]]
[2023.05.17-13.27.15:830][  0]LogConfig: Setting CVar [[r.VolumetricFog.GridPixelSize:8]]
[2023.05.17-13.27.15:830][  0]LogConfig: Setting CVar [[r.VolumetricFog.GridSizeZ:128]]
[2023.05.17-13.27.15:830][  0]LogConfig: Setting CVar [[r.VolumetricFog.HistoryMissSupersampleCount:4]]
[2023.05.17-13.27.15:830][  0]LogConfig: Setting CVar [[r.LightMaxDrawDistanceScale:1]]
[2023.05.17-13.27.15:830][  0]LogConfig: Setting CVar [[r.CapsuleShadows:1]]
[2023.05.17-13.27.15:830][  0]LogConfig: Applying CVar settings from Section [PostProcessQuality@3] File [C:/Users/Georgie/Documents/Unreal Projects/TpsGame/Saved/Config/Windows/Scalability.ini]
[2023.05.17-13.27.15:830][  0]LogConfig: Setting CVar [[r.MotionBlurQuality:4]]
[2023.05.17-13.27.15:830][  0]LogConfig: Setting CVar [[r.AmbientOcclusionMipLevelFactor:0.4]]
[2023.05.17-13.27.15:830][  0]LogConfig: Setting CVar [[r.AmbientOcclusionMaxQuality:100]]
[2023.05.17-13.27.15:830][  0]LogConfig: Setting CVar [[r.AmbientOcclusionLevels:-1]]
[2023.05.17-13.27.15:830][  0]LogConfig: Setting CVar [[r.AmbientOcclusionRadiusScale:1.0]]
[2023.05.17-13.27.15:830][  0]LogConfig: Setting CVar [[r.DepthOfFieldQuality:2]]
[2023.05.17-13.27.15:830][  0]LogConfig: Setting CVar [[r.RenderTargetPoolMin:400]]
[2023.05.17-13.27.15:830][  0]LogConfig: Setting CVar [[r.LensFlareQuality:2]]
[2023.05.17-13.27.15:830][  0]LogConfig: Setting CVar [[r.SceneColorFringeQuality:1]]
[2023.05.17-13.27.15:830][  0]LogConfig: Setting CVar [[r.EyeAdaptationQuality:2]]
[2023.05.17-13.27.15:830][  0]LogConfig: Setting CVar [[r.BloomQuality:5]]
[2023.05.17-13.27.15:830][  0]LogConfig: Setting CVar [[r.FastBlurThreshold:100]]
[2023.05.17-13.27.15:830][  0]LogConfig: Setting CVar [[r.Upscale.Quality:3]]
[2023.05.17-13.27.15:830][  0]LogConfig: Setting CVar [[r.Tonemapper.GrainQuantization:1]]
[2023.05.17-13.27.15:830][  0]LogConfig: Setting CVar [[r.LightShaftQuality:1]]
[2023.05.17-13.27.15:830][  0]LogConfig: Setting CVar [[r.Filter.SizeScale:1]]
[2023.05.17-13.27.15:830][  0]LogConfig: Setting CVar [[r.Tonemapper.Quality:5]]
[2023.05.17-13.27.15:830][  0]LogConfig: Setting CVar [[r.DOF.Gather.AccumulatorQuality:1        ; higher gathering accumulator quality]]
[2023.05.17-13.27.15:830][  0]LogConfig: Setting CVar [[r.DOF.Gather.PostfilterMethod:1          ; Median3x3 postfilering method]]
[2023.05.17-13.27.15:830][  0]LogConfig: Setting CVar [[r.DOF.Gather.EnableBokehSettings:0       ; no bokeh simulation when gathering]]
[2023.05.17-13.27.15:830][  0]LogConfig: Setting CVar [[r.DOF.Gather.RingCount:4                 ; medium number of samples when gathering]]
[2023.05.17-13.27.15:830][  0]LogConfig: Setting CVar [[r.DOF.Scatter.ForegroundCompositing:1    ; additive foreground scattering]]
[2023.05.17-13.27.15:830][  0]LogConfig: Setting CVar [[r.DOF.Scatter.BackgroundCompositing:2    ; additive background scattering]]
[2023.05.17-13.27.15:830][  0]LogConfig: Setting CVar [[r.DOF.Scatter.EnableBokehSettings:1      ; bokeh simulation when scattering]]
[2023.05.17-13.27.15:830][  0]LogConfig: Setting CVar [[r.DOF.Scatter.MaxSpriteRatio:0.1         ; only a maximum of 10% of scattered bokeh]]
[2023.05.17-13.27.15:830][  0]LogConfig: Setting CVar [[r.DOF.Recombine.Quality:1                ; cheap slight out of focus]]
[2023.05.17-13.27.15:830][  0]LogConfig: Setting CVar [[r.DOF.Recombine.EnableBokehSettings:0    ; no bokeh simulation on slight out of focus]]
[2023.05.17-13.27.15:830][  0]LogConfig: Setting CVar [[r.DOF.TemporalAAQuality:1                ; more stable temporal accumulation]]
[2023.05.17-13.27.15:830][  0]LogConfig: Setting CVar [[r.DOF.Kernel.MaxForegroundRadius:0.025]]
[2023.05.17-13.27.15:830][  0]LogConfig: Setting CVar [[r.DOF.Kernel.MaxBackgroundRadius:0.025]]
[2023.05.17-13.27.15:830][  0]LogConfig: Applying CVar settings from Section [TextureQuality@3] File [C:/Users/Georgie/Documents/Unreal Projects/TpsGame/Saved/Config/Windows/Scalability.ini]
[2023.05.17-13.27.15:830][  0]LogConfig: Setting CVar [[r.Streaming.MipBias:0]]
[2023.05.17-13.27.15:830][  0]LogConfig: Setting CVar [[r.Streaming.AmortizeCPUToGPUCopy:0]]
[2023.05.17-13.27.15:830][  0]LogConfig: Setting CVar [[r.Streaming.MaxNumTexturesToStreamPerFrame:0]]
[2023.05.17-13.27.15:830][  0]LogConfig: Setting CVar [[r.Streaming.Boost:1]]
[2023.05.17-13.27.15:830][  0]LogConfig: Setting CVar [[r.MaxAnisotropy:8]]
[2023.05.17-13.27.15:830][  0]LogConfig: Setting CVar [[r.VT.MaxAnisotropy:8]]
[2023.05.17-13.27.15:830][  0]LogConfig: Setting CVar [[r.Streaming.LimitPoolSizeToVRAM:0]]
[2023.05.17-13.27.15:830][  0]LogConfig: Setting CVar [[r.Streaming.PoolSize:1000]]
[2023.05.17-13.27.15:830][  0]LogConfig: Setting CVar [[r.Streaming.MaxEffectiveScreenSize:0]]
[2023.05.17-13.27.15:830][  0]LogConfig: Applying CVar settings from Section [EffectsQuality@3] File [C:/Users/Georgie/Documents/Unreal Projects/TpsGame/Saved/Config/Windows/Scalability.ini]
[2023.05.17-13.27.15:830][  0]LogConfig: Setting CVar [[r.TranslucencyLightingVolumeDim:64]]
[2023.05.17-13.27.15:830][  0]LogConfig: Setting CVar [[r.RefractionQuality:2]]
[2023.05.17-13.27.15:830][  0]LogConfig: Setting CVar [[r.SSR.Quality:3]]
[2023.05.17-13.27.15:830][  0]LogConfig: Setting CVar [[r.SSR.HalfResSceneColor:0]]
[2023.05.17-13.27.15:830][  0]LogConfig: Setting CVar [[r.SceneColorFormat:4]]
[2023.05.17-13.27.15:830][  0]LogConfig: Setting CVar [[r.DetailMode:2]]
[2023.05.17-13.27.15:830][  0]LogConfig: Setting CVar [[r.TranslucencyVolumeBlur:1]]
[2023.05.17-13.27.15:830][  0]LogConfig: Setting CVar [[r.MaterialQualityLevel:1 ; High quality]]
[2023.05.17-13.27.15:830][  0]LogConfig: Setting CVar [[r.AnisotropicMaterials:1]]
[2023.05.17-13.27.15:830][  0]LogConfig: Setting CVar [[r.SSS.Scale:1]]
[2023.05.17-13.27.15:830][  0]LogConfig: Setting CVar [[r.SSS.SampleSet:2]]
[2023.05.17-13.27.15:830][  0]LogConfig: Setting CVar [[r.SSS.Quality:1]]
[2023.05.17-13.27.15:830][  0]LogConfig: Setting CVar [[r.SSS.HalfRes:0]]
[2023.05.17-13.27.15:830][  0]LogConfig: Setting CVar [[r.SSGI.Quality:3]]
[2023.05.17-13.27.15:830][  0]LogConfig: Setting CVar [[r.EmitterSpawnRateScale:1.0]]
[2023.05.17-13.27.15:830][  0]LogConfig: Setting CVar [[r.ParticleLightQuality:2]]
[2023.05.17-13.27.15:830][  0]LogConfig: Setting CVar [[r.SkyAtmosphere.AerialPerspectiveLUT.FastApplyOnOpaque:1 ; Always have FastSkyLUT 1 in this case to avoid wrong sky]]
[2023.05.17-13.27.15:830][  0]LogConfig: Setting CVar [[r.SkyAtmosphere.AerialPerspectiveLUT.SampleCountMaxPerSlice:4]]
[2023.05.17-13.27.15:830][  0]LogConfig: Setting CVar [[r.SkyAtmosphere.AerialPerspectiveLUT.DepthResolution:16.0]]
[2023.05.17-13.27.15:830][  0]LogConfig: Setting CVar [[r.SkyAtmosphere.FastSkyLUT:1]]
[2023.05.17-13.27.15:830][  0]LogConfig: Setting CVar [[r.SkyAtmosphere.FastSkyLUT.SampleCountMin:4.0]]
[2023.05.17-13.27.15:830][  0]LogConfig: Setting CVar [[r.SkyAtmosphere.FastSkyLUT.SampleCountMax:128.0]]
[2023.05.17-13.27.15:830][  0]LogConfig: Setting CVar [[r.SkyAtmosphere.SampleCountMin:4.0]]
[2023.05.17-13.27.15:830][  0]LogConfig: Setting CVar [[r.SkyAtmosphere.SampleCountMax:128.0]]
[2023.05.17-13.27.15:830][  0]LogConfig: Setting CVar [[r.SkyAtmosphere.TransmittanceLUT.UseSmallFormat:0]]
[2023.05.17-13.27.15:830][  0]LogConfig: Setting CVar [[r.SkyAtmosphere.TransmittanceLUT.SampleCount:10.0]]
[2023.05.17-13.27.15:830][  0]LogConfig: Setting CVar [[r.SkyAtmosphere.MultiScatteringLUT.SampleCount:15.0]]
[2023.05.17-13.27.15:830][  0]LogConfig: Setting CVar [[r.SkyLight.RealTimeReflectionCapture:1]]
[2023.05.17-13.27.15:830][  0]LogConfig: Applying CVar settings from Section [FoliageQuality@3] File [C:/Users/Georgie/Documents/Unreal Projects/TpsGame/Saved/Config/Windows/Scalability.ini]
[2023.05.17-13.27.15:830][  0]LogConfig: Setting CVar [[foliage.DensityScale:1.0]]
[2023.05.17-13.27.15:830][  0]LogConfig: Setting CVar [[grass.DensityScale:1.0]]
[2023.05.17-13.27.15:830][  0]LogConfig: Applying CVar settings from Section [ShadingQuality@3] File [C:/Users/Georgie/Documents/Unreal Projects/TpsGame/Saved/Config/Windows/Scalability.ini]
[2023.05.17-13.27.15:830][  0]LogConfig: Setting CVar [[r.HairStrands.SkyLighting.IntegrationType:2]]
[2023.05.17-13.27.15:830][  0]LogConfig: Setting CVar [[r.HairStrands.SkyAO.SampleCount:4]]
[2023.05.17-13.27.15:830][  0]LogConfig: Setting CVar [[r.HairStrands.Visibility.MSAA.SamplePerPixel:4]]
[2023.05.17-13.27.15:830][  0]LogConfig: Applying CVar settings from Section [Startup] File [../../../Engine/Config/ConsoleVariables.ini]
[2023.05.17-13.27.15:831][  0]LogConfig: Setting CVar [[net.UseAdaptiveNetUpdateFrequency:0]]
[2023.05.17-13.27.15:831][  0]LogConfig: Setting CVar [[p.chaos.AllowCreatePhysxBodies:1]]
[2023.05.17-13.27.15:831][  0]LogConfig: Setting CVar [[fx.SkipVectorVMBackendOptimizations:1]]
[2023.05.17-13.27.15:831][  0]LogConfig: Applying CVar settings from Section [ConsoleVariables] File [C:/Users/Georgie/Documents/Unreal Projects/TpsGame/Saved/Config/Windows/Engine.ini]
[2023.05.17-13.27.15:831][  0]LogConfig: Applying CVar settings from Section [ConsoleVariables] File [C:/Users/Georgie/Documents/Unreal Projects/TpsGame/Saved/Config/Windows/Editor.ini]
[2023.05.17-13.27.15:831][  0]LogInit: Computer: ASUSGAMINGPC
[2023.05.17-13.27.15:831][  0]LogInit: User: Georgie
[2023.05.17-13.27.15:831][  0]LogInit: CPU Page size=4096, Cores=6
[2023.05.17-13.27.15:831][  0]LogInit: High frequency timer resolution =10.000000 MHz
[2023.05.17-13.27.15:831][  0]LogMemory: Memory total: Physical=15.9GB (16GB approx)
[2023.05.17-13.27.15:831][  0]LogMemory: Platform Memory Stats for Windows
[2023.05.17-13.27.15:831][  0]LogMemory: Process Physical Memory: 146.39 MB used, 146.39 MB peak
[2023.05.17-13.27.15:831][  0]LogMemory: Process Virtual Memory: 127.90 MB used, 127.90 MB peak
[2023.05.17-13.27.15:831][  0]LogMemory: Physical Memory: 8981.17 MB used,  7284.18 MB free, 16265.35 MB total
[2023.05.17-13.27.15:831][  0]LogMemory: Virtual Memory: 134208328.00 MB used,  9402.21 MB free, 134217728.00 MB total
[2023.05.17-13.27.15:837][  0]LogWindows: WindowsPlatformFeatures enabled
[2023.05.17-13.27.15:855][  0]LogInit: Physics initialised using underlying interface: PhysX
[2023.05.17-13.27.15:855][  0]LogInit: Using OS detected language (en-US).
[2023.05.17-13.27.15:855][  0]LogInit: Using OS detected locale (el-GR).
[2023.05.17-13.27.15:860][  0]LogTextLocalizationManager: No specific localization for 'en-US' exists, so the 'en' localization will be used.
[2023.05.17-13.27.15:861][  0]LogTextLocalizationManager: No localization for 'el-GR' exists, so 'en' will be used for the locale.
[2023.05.17-13.27.16:010][  0]LogWindowsTextInputMethodSystem: Display: IME system deactivated.
[2023.05.17-13.27.16:024][  0]LogSlate: New Slate User Created.  User Index 0, Is Virtual User: 0
[2023.05.17-13.27.16:024][  0]LogSlate: Slate User Registered.  User Index 0, Is Virtual User: 0
[2023.05.17-13.27.16:035][  0]LogD3D11RHI: Loaded GFSDK_Aftermath_Lib.x64.dll
[2023.05.17-13.27.16:058][  0]LogHMD: Failed to initialize OpenVR with code 110
[2023.05.17-13.27.16:058][  0]LogD3D11RHI: D3D11 min allowed feature level: 11_0
[2023.05.17-13.27.16:058][  0]LogD3D11RHI: D3D11 max allowed feature level: 11_0
[2023.05.17-13.27.16:058][  0]LogD3D11RHI: D3D11 adapters:
[2023.05.17-13.27.16:177][  0]LogD3D11RHI:    0. 'AMD Radeon RX 6500 XT' (Feature Level 11_0)
[2023.05.17-13.27.16:177][  0]LogD3D11RHI:       4051/0/8132 MB DedicatedVideo/DedicatedSystem/SharedSystem, Outputs:1, VendorId:0x1002
[2023.05.17-13.27.16:179][  0]LogD3D11RHI:    1. 'Microsoft Basic Render Driver' (Feature Level 11_0)
[2023.05.17-13.27.16:179][  0]LogD3D11RHI:       0/0/8132 MB DedicatedVideo/DedicatedSystem/SharedSystem, Outputs:0, VendorId:0x1414
[2023.05.17-13.27.16:179][  0]LogD3D11RHI: Chosen D3D11 Adapter:
[2023.05.17-13.27.16:179][  0]LogD3D11RHI:     Description : AMD Radeon RX 6500 XT
[2023.05.17-13.27.16:179][  0]LogD3D11RHI:     VendorId    : 1002
[2023.05.17-13.27.16:179][  0]LogD3D11RHI:     DeviceId    : 743f
[2023.05.17-13.27.16:179][  0]LogD3D11RHI:     SubSysId    : e4571da2
[2023.05.17-13.27.16:179][  0]LogD3D11RHI:     Revision    : 00c1
[2023.05.17-13.27.16:179][  0]LogD3D11RHI:     DedicatedVideoMemory : 4248002560 bytes
[2023.05.17-13.27.16:179][  0]LogD3D11RHI:     DedicatedSystemMemory : 0 bytes
[2023.05.17-13.27.16:179][  0]LogD3D11RHI:     SharedSystemMemory : 8527726592 bytes
[2023.05.17-13.27.16:179][  0]LogD3D11RHI:     AdapterLuid : 0 74166
[2023.05.17-13.27.16:185][  0]LogD3D11RHI: Creating new Direct3DDevice
[2023.05.17-13.27.16:185][  0]LogD3D11RHI:     GPU DeviceId: 0x743f (for the marketing name, search the web for "GPU Device Id")
[2023.05.17-13.27.16:185][  0]LogWindows: EnumDisplayDevices:
[2023.05.17-13.27.16:186][  0]LogWindows:    0. 'AMD Radeon RX 6500 XT' (P:1 D:1)
[2023.05.17-13.27.16:186][  0]LogWindows:    1. 'AMD Radeon RX 6500 XT' (P:0 D:0)
[2023.05.17-13.27.16:186][  0]LogWindows:    2. 'AMD Radeon RX 6500 XT' (P:0 D:0)
[2023.05.17-13.27.16:186][  0]LogWindows: DebugString: FoundDriverCount:3 
[2023.05.17-13.27.16:186][  0]LogD3D11RHI:     Adapter Name: AMD Radeon RX 6500 XT
[2023.05.17-13.27.16:186][  0]LogD3D11RHI:   Driver Version: AMD Software: Adrenalin Edition 23.4.3 (internal:31.0.14051.5006, unified:31.0.14051.5006)
[2023.05.17-13.27.16:186][  0]LogD3D11RHI:      Driver Date: 4-20-2023
[2023.05.17-13.27.16:186][  0]LogRHI: Texture pool is 2410 MB (70% of 3443 MB)
[2023.05.17-13.27.16:279][  0]LogD3D11RHI: Creating D3DDevice with AMD AGS, using adapter:
[2023.05.17-13.27.16:279][  0]LogD3D11RHI:     Description : AMD Radeon RX 6500 XT
[2023.05.17-13.27.16:279][  0]LogD3D11RHI:     VendorId    : 1002
[2023.05.17-13.27.16:279][  0]LogD3D11RHI:     DeviceId    : 743f
[2023.05.17-13.27.16:279][  0]LogD3D11RHI:     SubSysId    : e4571da2
[2023.05.17-13.27.16:279][  0]LogD3D11RHI:     Revision    : 00c1
[2023.05.17-13.27.16:279][  0]LogD3D11RHI:     DedicatedVideoMemory : 4248002560 bytes
[2023.05.17-13.27.16:279][  0]LogD3D11RHI:     DedicatedSystemMemory : 0 bytes
[2023.05.17-13.27.16:279][  0]LogD3D11RHI:     SharedSystemMemory : 8527726592 bytes
[2023.05.17-13.27.16:279][  0]LogD3D11RHI:     AdapterLuid : 0 74166
[2023.05.17-13.27.16:340][  0]LogD3D11RHI: Created device via AGS, feature level 11_0, supported extensions 1fffffbf.
[2023.05.17-13.27.16:340][  0]LogD3D11RHI: RHI has support for 64 bit atomics
[2023.05.17-13.27.16:341][  0]LogD3D11RHI: Async texture creation enabled
[2023.05.17-13.27.16:341][  0]LogD3D11RHI: Array index from any shader is supported
[2023.05.17-13.27.16:341][  0]LogD3D11RHI: HDR output is supported on display 0 (AMD Device: 0x0, Display: 0x0).
[2023.05.17-13.27.16:355][  0]LogD3D11RHI: GPU Timing Frequency: 100.000000 (Debug: 2 1)
[2023.05.17-13.27.16:555][  0]LogTargetPlatformManager: Display: Loaded TargetPlatform 'WindowsNoEditor'
[2023.05.17-13.27.16:559][  0]LogTargetPlatformManager: Display: Loaded TargetPlatform 'Windows'
[2023.05.17-13.27.16:562][  0]LogTargetPlatformManager: Display: Loaded TargetPlatform 'WindowsClient'
[2023.05.17-13.27.16:566][  0]LogTargetPlatformManager: Display: Loaded TargetPlatform 'WindowsServer'
[2023.05.17-13.27.16:566][  0]LogTargetPlatformManager: Display: Building Assets For Windows
[2023.05.17-13.27.16:571][  0]LogAudioDebug: Display: Lib vorbis DLL was dynamically loaded.
[2023.05.17-13.27.16:596][  0]LogTextureFormatOodle: Display: Oodle Texture 2.9.0 init RDO Off
[2023.05.17-13.27.16:622][  0]LogRendererCore: Ray tracing is disabled. Reason: r.RayTracing=0.
[2023.05.17-13.27.16:622][  0]LogShaderCompilers: Guid format shader working directory is -17 characters bigger than the processId version (../../../../../../Users/Georgie/Documents/Unreal Projects/TpsGame/Intermediate/Shaders/WorkingDirectory/9100/).
[2023.05.17-13.27.16:622][  0]LogShaderCompilers: Cleaned the shader compiler working directory 'C:/Users/Georgie/AppData/Local/Temp/UnrealShaderWorkingDir/F82E87F54F7B8B17C418AFA687B9E796/'.
[2023.05.17-13.27.16:622][  0]LogXGEController: Cannot use XGE Controller as Incredibuild is not installed on this machine.
[2023.05.17-13.27.16:622][  0]LogShaderCompilers: Cannot use XGE Shader Compiler as Incredibuild is not installed on this machine.
[2023.05.17-13.27.16:622][  0]LogShaderCompilers: Display: Using Local Shader Compiler.
[2023.05.17-13.27.17:156][  0]LogDerivedDataCache: Display: Max Cache Size: 512 MB
[2023.05.17-13.27.17:211][  0]LogDerivedDataCache: Loaded boot cache 0.05s 103MB C:/Users/Georgie/AppData/Local/UnrealEngine/4.27/DerivedDataCache/Boot.ddc.
[2023.05.17-13.27.17:211][  0]LogDerivedDataCache: Display: Loaded Boot cache: C:/Users/Georgie/AppData/Local/UnrealEngine/4.27/DerivedDataCache/Boot.ddc
[2023.05.17-13.27.17:211][  0]LogDerivedDataCache: FDerivedDataBackendGraph:  Pak pak cache file ../../../../../../Users/Georgie/Documents/Unreal Projects/TpsGame/DerivedDataCache/DDC.ddp not found, will not use a pak cache.
[2023.05.17-13.27.17:211][  0]LogDerivedDataCache: Unable to find inner node Pak for hierarchical cache Hierarchy.
[2023.05.17-13.27.17:211][  0]LogDerivedDataCache: FDerivedDataBackendGraph:  CompressedPak pak cache file ../../../../../../Users/Georgie/Documents/Unreal Projects/TpsGame/DerivedDataCache/Compressed.ddp not found, will not use a pak cache.
[2023.05.17-13.27.17:211][  0]LogDerivedDataCache: Unable to find inner node CompressedPak for hierarchical cache Hierarchy.
[2023.05.17-13.27.17:227][  0]LogDerivedDataCache: Display: Pak cache opened for reading ../../../Engine/DerivedDataCache/Compressed.ddp.
[2023.05.17-13.27.17:227][  0]LogDerivedDataCache: FDerivedDataBackendGraph:  EnterprisePak pak cache file ../../../Enterprise/DerivedDataCache/Compressed.ddp not found, will not use a pak cache.
[2023.05.17-13.27.17:227][  0]LogDerivedDataCache: Unable to find inner node EnterprisePak for hierarchical cache Hierarchy.
[2023.05.17-13.27.17:233][  0]LogDerivedDataCache: Speed tests for C:/Users/Georgie/AppData/Local/UnrealEngine/Common/DerivedDataCache took 0.01 seconds
[2023.05.17-13.27.17:233][  0]LogDerivedDataCache: Display: Performance to C:/Users/Georgie/AppData/Local/UnrealEngine/Common/DerivedDataCache: Latency=0.02ms. RandomReadSpeed=1542.28MBs, RandomWriteSpeed=179.18MBs. Assigned SpeedClass 'Local'
[2023.05.17-13.27.17:234][  0]LogDerivedDataCache: Using Local data cache path C:/Users/Georgie/AppData/Local/UnrealEngine/Common/DerivedDataCache: Writable
[2023.05.17-13.27.17:234][  0]LogDerivedDataCache: Shared data cache path not found in *engine.ini, will not use an Shared cache.
[2023.05.17-13.27.17:234][  0]LogDerivedDataCache: Unable to find inner node Shared for hierarchical cache Hierarchy.
[2023.05.17-13.27.17:260][  0]LogSlate: Using FreeType 2.10.0
[2023.05.17-13.27.17:260][  0]LogSlate: SlateFontServices - WITH_FREETYPE: 1, WITH_HARFBUZZ: 1
[2023.05.17-13.27.17:319][  0]LogInit: Using OS detected language (en-US).
[2023.05.17-13.27.17:319][  0]LogInit: Using OS detected locale (el-GR).
[2023.05.17-13.27.17:320][  0]LogTextLocalizationManager: No localization for 'en-US' exists, so 'en' will be used for the language.
[2023.05.17-13.27.17:320][  0]LogTextLocalizationManager: No localization for 'el-GR' exists, so 'en' will be used for the locale.
[2023.05.17-13.27.17:322][  0]LogTextLocalizationManager: Compacting localization data took   0.00ms
[2023.05.17-13.27.17:322][  0]LogAssetRegistry: FAssetRegistry took 0.0013 seconds to start up
[2023.05.17-13.27.17:451][  0]LogPackageLocalizationCache: Processed 27 localized package path(s) for 1 prioritized culture(s) in 0.000742 seconds
[2023.05.17-13.27.17:497][  0]LogInit: Selected Device Profile: [Windows]
[2023.05.17-13.27.17:497][  0]LogInit: Active device profile: [0000021B6AD20700][0000021B63C89100 49] Windows
[2023.05.17-13.27.17:497][  0]LogInit: Profiles: [0000021B6AD20700][0000021B63C89100 49] Windows, [0000021B6ACD7700][0000021B63C91280 49] WindowsNoEditor, [0000021B6AD23300][0000021B63C95400 49] WindowsServer, [0000021B6ACD4F00][0000021B69543580 49] WindowsClient, [0000021B6AD23500][0000021B63C8D6C0 49] IOS, [0000021B6ACC7F00][0000021B69547800 49] iPadAir, [0000021B6ACD7B00][0000021B6954B940 49] iPadAir2, [0000021B6AC7C500][0000021B69557BC0 49] IPadPro, [0000021B6AC7C600][0000021B6954FC00 49] iPadAir3, [0000021B6ACC4100][0000021B6955A200 49] iPadAir4, [0000021B6AC7EC00][0000021B6955E380 49] iPadMini2, [0000021B6ACC6500][0000021B69562500 49] iPadMini3, [0000021B6AC7F400][0000021B69566680 49] iPadMini4, [0000021B6ACC4F00][0000021B6956A800 49] iPadMini5, [0000021B6AC73E00][0000021B69572AC0 49] iPhone6, [0000021B6AC73F00][0000021B6956EB00 49] iPodTouch6, [0000021B6AD23900][0000021B6957ADC0 49] iPhone7, [0000021B6AD22100][0000021B69576E00 49] iPodTouch7, [0000021B6AC70400][0000021B6957EF80 49] iPhone5S, [0000021B6AC7FD00][0000021B69583100 49] iPhone6Plus, [0000021B6AD23400][0000021B69587280 49] iPhone6S, [0000021B6AC7E000][0000021B6958B400 49] iPhone6SPlus, [0000021B6AD20900][0000021B64FDD580 49] iPhone7Plus, [0000021B6AC7CE00][0000021B64FE1700 49] iPhoneSE, [0000021B6AD23100][0000021B64FE5880 49] iPhone8, [0000021B6AC7E400][0000021B695539C0 49] iPhone8Plus, [0000021B6AD23A00][0000021B64FE9B00 49] iPhoneX, [0000021B6AC7FE00][0000021B64FEC0C0 49] iPhoneXS, [0000021B6AD21500][0000021B64FF4240 49] iPhoneXSMax, [0000021B6AC7E500][0000021B64FF83C0 49] iPhoneXR, [0000021B6AD22A00][0000021B64FFC540 49] iPhone11, [0000021B6AC7FA00][0000021B650006C0 49] iPhone11Pro, [0000021B6AD20F00][0000021B65004840 49] iPhone11ProMax, [0000021B6AC7E300][0000021B650089C0 49] iPhoneSE2, [0000021B6AD21700][0000021B6500CB40 49] iPhone12Mini, [0000021B6AC7C700][0000021B65010CC0 49] iPhone12, [0000021B6AD20300][0000021B65014E40 49] iPhone12Pro, [0000021B6AC7F500][0000021B65018FC0 49] iPhone12ProMax, [0000021B6AD20B00][0000021B6501D140 49] iPadPro105, [0000021B6AC7DB00][0000021B650212C0 49] iPadPro129, [0000021B6AD20200][0000021B65025440 49] iPadPro97, [0000021B6AC7E100][0000021B69DC15C0 49] iPadPro2_129, [0000021B6AD20D00][0000021B69DC5740 49] iPad5, [0000021B6AC7F000][0000021B69DC98C0 49] iPad6, [0000021B6AD22C00][0000021B69DCDA40 49] iPad7, [0000021B6AC7EE00][0000021B64FF1B80 49] iPad8, [0000021B6AD23E00][0000021B69DD0140 49] iPadPro11, [0000021B6AC7D900][0000021B69DD4280 49] iPadPro2_11, [0000021B6AD21900][0000021B69DD83C0 49] iPadPro3_129, [0000021B6AC7CB00][0000021B69DE0540 49] iPadPro4_129, [0000021B6AD23D00][0000021B69DE46C0 49] AppleTV, [0000021B6AC7CF00][0000021B69DE8840 49] AppleTV4K, [0000021B6AD21B00][0000021B69DEC9C0 49] TVOS, [0000021B6AC7D000][0000021B69DF0B40 49] Mac, [0000021B6AD21F00][0000021B69DF4CC0 49] MacClient, [0000021B6AC7EB00][0000021B69DF8E40 49] MacNoEditor, [0000021B6AD23B00][0000021B69DFCFC0 49] MacServer, [0000021B6AC7F300][0000021B69E01140 49] Linux, [0000021B6AD20800][0000021B69E052C0 49] LinuxAArch64, [0000021B6AC7DD00][0000021B69E09440 49] LinuxNoEditor, [0000021B6AD22700][0000021B69E0D5C0 49] LinuxAArch64NoEditor, [0000021B6AC7E200][0000021B69E11740 49] LinuxClient, [0000021B6AD23800][0000021B69E158C0 49] LinuxAArch64Client, [0000021B6AC7D300][0000021B69E19A40 49] LinuxServer, [0000021B6AD21400][0000021B69E1DBC0 49] LinuxAArch64Server, [0000021B6AC7D800][0000021B69DDC180 49] Android, [0000021B6ACC7A00][0000021B69E202C0 49] Android_Low, [0000021B6AC71B00][0000021B69E24400 49] Android_Mid, [0000021B6ACC7000][0000021B69E28540 49] Android_High, [0000021B6AC73800][0000021B69E306C0 49] Android_Default, [0000021B6ACC6000][0000021B69E34840 49] Android_Adreno4xx, [0000021B6AC73B00][0000021B69E389C0 49] Android_Adreno5xx_Low, [0000021B6ACC4B00][0000021B69E3CB40 49] Android_Adreno5xx, [0000021B6AC71800][0000021B69E40CC0 49] Android_Adreno6xx, [0000021B6ACC5100][0000021B69E44E40 49] Android_Adreno6xx_Vulkan, [0000021B6AC70800][0000021B69E48FC0 49] Android_Mali_T6xx, [0000021B6ACC7600][0000021B69E4D140 49] Android_Mali_T7xx, [0000021B6AC70D00][0000021B69E512C0 49] Android_Mali_T8xx, [0000021B6ACC7C00][0000021B69E55440 49] Android_Mali_G71, [0000021B6AC70900][0000021B69E595C0 49] Android_Mali_G72, [0000021B6ACC7E00][0000021B69E5D740 49] Android_Mali_G72_Vulkan, [0000021B6AC71900][0000021B69E618C0 49] Android_Mali_G76, [0000021B6ACC7900][0000021B69E65A40 49] Android_Mali_G76_Vulkan, [0000021B6AC73600][0000021B69E69BC0 49] Android_Mali_G77, [0000021B6ACC6200][0000021B69E6C1C0 49] Android_Mali_G77_Vulkan, [0000021B6AC72300][0000021B69E70340 49] Android_Mali_G78, [0000021B6ACC4A00][0000021B69E2C480 49] Android_Mali_G78_Vulkan, [0000021B6AC73400][0000021B69E745C0 49] Android_Mali_G710, [0000021B6ACC5400][0000021B69E78700 49] Android_Mali_G710_Vulkan, [0000021B6AC70700][0000021B69E80880 49] Android_Vulkan_SM5, [0000021B6ACC6400][0000021B69E84A00 49] Android_PowerVR_G6xxx, [0000021B6AC70E00][0000021B69E88B80 49] Android_PowerVR_GT7xxx, [0000021B6ACC4200][0000021B69E8CD00 49] Android_PowerVR_GE8xxx, [0000021B6AC70100][0000021B69E90E80 49] Android_PowerVR_GM9xxx, [0000021B6ACC6100][0000021B69E95000 49] Android_PowerVR_GM9xxx_Vulkan, [0000021B6AC7F800][0000021B69E99180 49] Android_TegraK1, [0000021B6ACC6A00][0000021B69E9D300 49] Android_Unknown_Vulkan, [0000021B6AC7E600][0000021B69EA1480 49] Lumin, [0000021B6ACC5300][0000021B69EA5600 49] Lumin_Desktop, [0000021B6AC7C300][0000021B69EA9780 49] HoloLens, 
[2023.05.17-13.27.17:529][  0]LogMeshReduction: Using QuadricMeshReduction for automatic static mesh reduction
[2023.05.17-13.27.17:529][  0]LogMeshReduction: Using SimplygonMeshReduction for automatic skeletal mesh reduction
[2023.05.17-13.27.17:529][  0]LogMeshReduction: Using ProxyLODMeshReduction for automatic mesh merging
[2023.05.17-13.27.17:529][  0]LogMeshReduction: No distributed automatic mesh merging module available
[2023.05.17-13.27.17:529][  0]LogMeshMerging: No distributed automatic mesh merging module available
[2023.05.17-13.27.17:599][  0]LogNetVersion: TpsGame 1.0.0, NetCL: 17155196, EngineNetVer: 17, GameNetVer: 0 (Checksum: 2278266066)
[2023.05.17-13.27.17:755][  0]LogTexture: Default maximum texture size for cubemaps generated from long-lat sources has been changed from 512 to unlimited. In order to preserve old behaiour for '/Engine/MapTemplates/Sky/DaylightAmbientCubemap.DaylightAmbientCubemap', its maximum texture size has been explicitly set to 512.
[2023.05.17-13.27.17:798][  0]LogHMD: PokeAHoleMaterial loaded successfully
[2023.05.17-13.27.17:878][  0]LogMoviePlayer: Initializing movie player
[2023.05.17-13.27.17:969][  0]LogNiagaraDebuggerClient: Niagara Debugger Client Initialized | Session: 5B9F53B3434202EF958EB0920925B843 | Instance: 366491F7410EEA4D4D860DAD4D8F6094 (ASUSGAMINGPC-9100).
[2023.05.17-13.27.17:985][  0]LogCollectionManager: Loaded 0 collections in 0.001577 seconds
[2023.05.17-13.27.17:987][  0]LogFileCache: Scanning file cache for directory 'C:/Users/Georgie/Documents/Unreal Projects/TpsGame/Saved/Collections/' took 0.00s
[2023.05.17-13.27.17:987][  0]LogFileCache: Scanning file cache for directory 'C:/Users/Georgie/Documents/Unreal Projects/TpsGame/Content/Developers/Georgie/Collections/' took 0.00s
[2023.05.17-13.27.17:987][  0]LogFileCache: Scanning file cache for directory 'C:/Users/Georgie/Documents/Unreal Projects/TpsGame/Content/Collections/' took 0.00s
[2023.05.17-13.27.17:987][  0]LogCollectionManager: Fixed up redirectors for 0 collections in 0.000001 seconds (updated 0 objects)
[2023.05.17-13.27.18:060][  0]LogPython: Using Python 3.7.7
[2023.05.17-13.27.18:379][  0]LogTcpMessaging: Initializing TcpMessaging bridge
[2023.05.17-13.27.18:382][  0]LogUdpMessaging: Initializing bridge on interface 0.0.0.0:0 to multicast group 230.0.0.1:6666.
[2023.05.17-13.27.18:418][  0]LogOutputDevice: Warning: 

Script Stack (0 frames):

[2023.05.17-13.27.18:452][  0]LogStats: FPlatformStackWalk::StackWalkAndDump -  0.034 s
[2023.05.17-13.27.18:452][  0]LogOutputDevice: Error: === Handled ensure: ===
[2023.05.17-13.27.18:452][  0]LogOutputDevice: Error: 
[2023.05.17-13.27.18:452][  0]LogOutputDevice: Error: Ensure condition failed: this->IsBound() [File:C:\Program Files\Epic Games\UE_4.27\Engine\Source\Runtime\Core\Public\Delegates/DelegateSignatureImpl.inl] [Line: 1028]
[2023.05.17-13.27.18:452][  0]LogOutputDevice: Error: Unable to bind delegate to 'CollisionSphereHit' (function might not be marked as a UFUNCTION or object may be pending kill)
[2023.05.17-13.27.18:452][  0]LogOutputDevice: Error: Stack: 
[2023.05.17-13.27.18:452][  0]LogOutputDevice: Error: [Callstack] 0x00007ffc85c94608 UE4Editor-TpsGame-7504.dll!DispatchCheckVerify<bool,<lambda_e93d7c8d15003e8b5fb4aeb57bd35861> >() [C:\Program Files\Epic Games\UE_4.27\Engine\Source\Runtime\Core\Public\Misc\AssertionMacros.h:164]
[2023.05.17-13.27.18:452][  0]LogOutputDevice: Error: [Callstack] 0x00007ffc85c8803a UE4Editor-TpsGame-7504.dll!AProjectileBase::AProjectileBase() [C:\Users\Georgie\Documents\Unreal Projects\TpsGame\Source\TpsGame\ProjectileBase.cpp:15]
[2023.05.17-13.27.18:452][  0]LogOutputDevice: Error: [Callstack] 0x00007ffccdc361d3 UE4Editor-CoreUObject.dll!UnknownFunction []
[2023.05.17-13.27.18:452][  0]LogOutputDevice: Error: [Callstack] 0x00007ffccdf58faf UE4Editor-CoreUObject.dll!UnknownFunction []
[2023.05.17-13.27.18:452][  0]LogOutputDevice: Error: [Callstack] 0x00007ffccdf35411 UE4Editor-CoreUObject.dll!UnknownFunction []
[2023.05.17-13.27.18:452][  0]LogOutputDevice: Error: [Callstack] 0x00007ffccddfddc5 UE4Editor-CoreUObject.dll!UnknownFunction []
[2023.05.17-13.27.18:452][  0]LogOutputDevice: Error: [Callstack] 0x00007ffccca01bea UE4Editor-Core.dll!UnknownFunction []
[2023.05.17-13.27.18:452][  0]LogOutputDevice: Error: [Callstack] 0x00007ffccca215a3 UE4Editor-Core.dll!UnknownFunction []
[2023.05.17-13.27.18:453][  0]LogOutputDevice: Error: [Callstack] 0x00007ffccfea6433 UE4Editor-Projects.dll!UnknownFunction []
[2023.05.17-13.27.18:453][  0]LogOutputDevice: Error: [Callstack] 0x00007ffccfea674f UE4Editor-Projects.dll!UnknownFunction []
[2023.05.17-13.27.18:453][  0]LogOutputDevice: Error: [Callstack] 0x00007ff7c0005642 UE4Editor.exe!UnknownFunction []
[2023.05.17-13.27.18:453][  0]LogOutputDevice: Error: [Callstack] 0x00007ff7c0009000 UE4Editor.exe!UnknownFunction []
[2023.05.17-13.27.18:453][  0]LogOutputDevice: Error: [Callstack] 0x00007ff7c0000d2c UE4Editor.exe!UnknownFunction []
[2023.05.17-13.27.18:453][  0]LogOutputDevice: Error: [Callstack] 0x00007ff7c00010ba UE4Editor.exe!UnknownFunction []
[2023.05.17-13.27.18:453][  0]LogOutputDevice: Error: [Callstack] 0x00007ff7c00040dd UE4Editor.exe!UnknownFunction []
[2023.05.17-13.27.18:453][  0]LogOutputDevice: Error: [Callstack] 0x00007ff7c0015984 UE4Editor.exe!UnknownFunction []
[2023.05.17-13.27.18:453][  0]LogOutputDevice: Error: [Callstack] 0x00007ff7c001853a UE4Editor.exe!UnknownFunction []
[2023.05.17-13.27.18:453][  0]LogOutputDevice: Error: [Callstack] 0x00007ffd8e1426ad KERNEL32.DLL!UnknownFunction []
[2023.05.17-13.27.18:453][  0]LogOutputDevice: Error: [Callstack] 0x00007ffd8e6aa9f8 ntdll.dll!UnknownFunction []
[2023.05.17-13.27.18:453][  0]LogOutputDevice: Error: 
