Not using cached read wrapper
Started task graph with 5 named threads and 35 total threads with 3 sets of task threads.
Stats thread started at 0.321226
ICU TimeZone Detection - Raw Offset: +2:00, Platform Override: ''
Loading text-based GConfig....
Mounting plugin MeshPainting
Mounting plugin XGEController
Mounting plugin Paper2D
Mounting plugin AISupport
Mounting plugin EnvironmentQueryEditor
Mounting plugin LiveLink
Mounting plugin OodleData
Mounting plugin CameraShakePreviewer
Mounting plugin OodleNetwork
Mounting plugin GameplayCameras
Mounting plugin LightPropagationVolume
Mounting plugin AssetManagerEditor
Mounting plugin CryptoKeys
Mounting plugin DataValidation
Mounting plugin CurveEditorTools
Mounting plugin GameplayTagsEditor
Mounting plugin GeometryMode
Mounting plugin FacialAnimation
Mounting plugin MaterialAnalyzer
Mounting plugin MacGraphicsSwitching
Mounting plugin MobileLauncherProfileWizard
Mounting plugin PluginBrowser
Mounting plugin SpeedTreeImporter
Mounting plugin DatasmithContent
Mounting plugin VariantManagerContent
Mounting plugin Niagara
Mounting plugin LuminPlatformFeatures
Mounting plugin MagicLeap
Mounting plugin MagicLeapMedia
Mounting plugin MagicLeapLightEstimation
Mounting plugin MagicLeapPassableWorld
Mounting plugin MLSDK
Mounting plugin AndroidMedia
Mounting plugin AvfMedia
Mounting plugin MediaCompositing
Mounting plugin ImgMedia
Mounting plugin WebMMedia
Mounting plugin WmfMedia
Mounting plugin AlembicImporter
Mounting plugin AutomationUtils
Mounting plugin BackChannel
Mounting plugin ChaosClothEditor
Mounting plugin ChaosCloth
Mounting plugin ChaosEditor
Mounting plugin ChaosNiagara
Mounting plugin ChaosSolverPlugin
Mounting plugin CharacterAI
Mounting plugin AnimationSharing
Mounting plugin CLionSourceCodeAccess
Mounting plugin CodeLiteSourceCodeAccess
Mounting plugin GitSourceControl
Mounting plugin NullSourceCodeAccess
Mounting plugin KDevelopSourceCodeAccess
Mounting plugin GeometryCache
Mounting plugin GeometryCollectionPlugin
Mounting plugin GeometryProcessing
Mounting plugin MotoSynth
Mounting plugin PlanarCut
Mounting plugin OpenImageDenoise
Mounting plugin PlatformCrypto
Mounting plugin ProxyLODPlugin
Mounting plugin PythonScriptPlugin
Mounting plugin PixWinPlugin
Mounting plugin PerforceSourceControl
Mounting plugin PlasticSourceControl
Mounting plugin PluginUtils
Mounting plugin RiderSourceCodeAccess
Mounting plugin SubversionSourceControl
Mounting plugin TextureFormatOodle
Mounting plugin PropertyAccessNode
Mounting plugin TcpMessaging
Mounting plugin VisualStudioSourceCodeAccess
Mounting plugin VisualStudioCodeSourceCodeAccess
Mounting plugin UObjectPlugin
Mounting plugin XCodeSourceCodeAccess
Mounting plugin SkeletalReduction
Mounting plugin UdpMessaging
Mounting plugin ActorSequence
Mounting plugin MatineeToLevelSequence
Mounting plugin LevelSequenceEditor
Mounting plugin OnlineSubsystem
Mounting plugin OnlineSubsystemNull
Mounting plugin OnlineSubsystemUtils
Mounting plugin LauncherChunkInstaller
Mounting plugin ActorLayerUtilities
Mounting plugin AndroidMoviePlayer
Mounting plugin AndroidPermission
Mounting plugin AndroidDeviceProfileSelector
Mounting plugin AppleMoviePlayer
Mounting plugin AppleImageUtils
Mounting plugin AssetTags
Mounting plugin AudioSynesthesia
Mounting plugin CableComponent
Mounting plugin ArchVisCharacter
Mounting plugin ChunkDownloader
Mounting plugin CustomMeshComponent
Mounting plugin EditableMesh
Mounting plugin AudioCapture
Mounting plugin ExampleDeviceProfileSelector
Mounting plugin MediaPlayerEditor
Mounting plugin GoogleCloudMessaging
Mounting plugin GooglePAD
Mounting plugin LinuxDeviceProfileSelector
Mounting plugin IOSDeviceProfileSelector
Mounting plugin LocationServicesBPLibrary
Mounting plugin MobilePatchingUtils
Mounting plugin OpenXR
Mounting plugin OpenXREyeTracker
Mounting plugin ScreenshotTools
Mounting plugin OpenXRHandTracking
Mounting plugin PostSplashScreen
Mounting plugin PhysXVehicles
Mounting plugin ProceduralMeshComponent
Mounting plugin PropertyAccessEditor
Mounting plugin RuntimePhysXCooking
Mounting plugin SoundFields
Mounting plugin SignificanceManager
Mounting plugin Synthesis
Mounting plugin WebMMoviePlayer
Mounting plugin WindowsMoviePlayer
Mounting plugin Takes
Mounting plugin TemplateSequence
Mounting plugin ContentBrowserAssetDataSource
Mounting plugin ContentBrowserClassDataSource
Mounting plugin ContentBrowserFileDataSource
Mounting plugin OnlineSubsystemIOS
Mounting plugin OnlineSubsystemGooglePlay
Mounting plugin OculusVR
Mounting plugin SteamVR
PIX capture plugin failed to initialize! Check that the process is launched from PIX.
Using libcurl 7.55.1-DEV
 - built for x86_64-pc-win32
 - supports SSL with OpenSSL/1.1.1
 - supports HTTP deflate (compression) using libz 1.2.8
 - other features:
     CURL_VERSION_SSL
     CURL_VERSION_LIBZ
     CURL_VERSION_IPV6
     CURL_VERSION_ASYNCHDNS
     CURL_VERSION_LARGEFILE
     CURL_VERSION_IDN
 CurlRequestOptions (configurable via config and command line):
 - bVerifyPeer = true  - Libcurl will verify peer certificate
 - bUseHttpProxy = false  - Libcurl will NOT use HTTP proxy
 - bDontReuseConnections = false  - Libcurl will reuse connections
 - MaxHostConnections = 16  - Libcurl will limit the number of connections to a host
 - LocalHostAddr = Default
 - BufferSize = 65536
OSS: Creating online subsystem instance for: NULL
WinSock: version 1.1 (2.2), MaxSocks=32767, MaxUdp=65467
OSS: TryLoadSubsystemAndSetDefault: Loaded subsystem for module [NULL]
Build: ++UE4+Release-4.27-CL-18319896
Engine Version: 4.27.2-18319896+++UE4+Release-4.27
Compatible Engine Version: 4.27.0-17155196+++UE4+Release-4.27
Net CL: 17155196
OS: Windows 10 (Release 2009) (), CPU: AMD Ryzen 5 5600X 6-Core Processor             , GPU: AMD Radeon RX 6500 XT
Compiled (64-bit): Nov 30 2021 07:12:08
Compiled with Visual C++: 19.24.28315.00
Build Configuration: Development
Branch Name: ++UE4+Release-4.27
Command Line:  "C:\Users\Georgie\Documents\Unreal Projects\TpsGame\TpsGame.uproject" -run=VisualStudioTools -unattended -noshadercompile -noaudio -nullrhi -nocpuprofilertrace -nocrashreports -nosplash -output C:\Users\Georgie\AppData\Local\Temp\tmp200D.tmp
Base Directory: C:/Program Files/Epic Games/UE_4.27/Engine/Binaries/Win64/
Allocator: TBB
Installed Engine Build: 1
Number of dev versions registered: 29
  Dev-Blueprints (B0D832E4-1F89-4F0D-ACCF-7EB736FD4AA2): 10
  Dev-Build (E1C64328-A22C-4D53-A36C-8E866417BD8C): 0
  Dev-Core (375EC13C-06E4-48FB-B500-84F0262A717E): 4
  Dev-Editor (E4B068ED-F494-42E9-A231-DA0B2E46BB41): 40
  Dev-Framework (CFFC743F-43B0-4480-9391-14DF171D2073): 37
  Dev-Mobile (B02B49B5-BB20-44E9-A304-32B752E40360): 3
  Dev-Networking (A4E4105C-59A1-49B5-A7C5-40C4547EDFEE): 0
  Dev-Online (39C831C9-5AE6-47DC-9A44-9C173E1C8E7C): 0
  Dev-Physics (78F01B33-EBEA-4F98-B9B4-84EACCB95AA2): 14
  Dev-Platform (6631380F-2D4D-43E0-8009-CF276956A95A): 0
  Dev-Rendering (12F88B9F-8875-4AFC-A67C-D90C383ABD29): 45
  Dev-Sequencer (7B5AE74C-D270-4C10-A958-57980B212A5A): 13
  Dev-VR (D7296918-1DD6-4BDD-9DE2-64A83CC13884): 3
  Dev-LoadTimes (C2A15278-BFE7-4AFE-6C17-90FF531DF755): 1
  Private-Geometry (6EACA3D4-40EC-4CC1-B786-8BED09428FC5): 3
  Dev-AnimPhys (29E575DD-E0A3-4627-9D10-D276232CDCEA): 17
  Dev-Anim (AF43A65D-7FD3-4947-9873-3E8ED9C1BB05): 15
  Dev-ReflectionCapture (6B266CEC-1EC7-4B8F-A30B-E4D90942FC07): 1
  Dev-Automation (0DF73D61-A23F-47EA-B727-89E90C41499A): 1
  FortniteMain (601D1886-AC64-4F84-AA16-D3DE0DEAC7D6): 47
  FortniteRelease (E7086368-6B23-4C58-8439-1B7016265E91): 1
  Dev-Enterprise (9DFFBCD6-494F-0158-E221-12823C92A888): 10
  Dev-Niagara (F2AED0AC-9AFE-416F-8664-AA7FFA26D6FC): 1
  Dev-Destruction (174F1F0B-B4C6-45A5-B13F-2EE8D0FB917D): 10
  Dev-Physics-Ext (35F94A83-E258-406C-A318-09F59610247C): 41
  Dev-PhysicsMaterial-Chaos (B68FC16E-8B1B-42E2-B453-215C058844FE): 1
  Dev-CineCamera (B2E18506-4273-CFC2-A54E-F4BB758BBA07): 1
  Dev-VirtualProduction (64F58936-FD1B-42BA-BA96-7289D5D0FA4E): 1
  Dev-MediaFramework (6F0ED827-A609-4895-9C91-998D90180EA4): 2
Presizing for max 25165824 objects, including 0 objects not considered by GC, pre-allocating 0 bytes for permanent pool.
Applying CVar settings from Section [/Script/Engine.StreamingSettings] File [C:/Users/Georgie/Documents/Unreal Projects/TpsGame/Saved/Config/Windows/Engine.ini]
Setting CVar [[s.MinBulkDataSizeForAsyncLoading:131072]]
Setting CVar [[s.AsyncLoadingThreadEnabled:0]]
Setting CVar [[s.EventDrivenLoaderEnabled:1]]
Setting CVar [[s.WarnIfTimeLimitExceeded:0]]
Setting CVar [[s.TimeLimitExceededMultiplier:1.5]]
Setting CVar [[s.TimeLimitExceededMinTime:0.005]]
Setting CVar [[s.UseBackgroundLevelStreaming:1]]
Setting CVar [[s.PriorityAsyncLoadingExtraTime:15.0]]
Setting CVar [[s.LevelStreamingActorsUpdateTimeLimit:5.0]]
Setting CVar [[s.PriorityLevelStreamingActorsUpdateExtraTime:5.0]]
Setting CVar [[s.LevelStreamingComponentsRegistrationGranularity:10]]
Setting CVar [[s.UnregisterComponentsTimeLimit:1.0]]
Setting CVar [[s.LevelStreamingComponentsUnregistrationGranularity:5]]
Setting CVar [[s.FlushStreamingOnExit:1]]
Object subsystem initialized
Setting CVar [[con.DebugEarlyDefault:1]]
Setting CVar [[r.setres:1280x720]]
Setting CVar [[con.DebugEarlyDefault:1]]
Setting CVar [[r.setres:1280x720]]
Applying CVar settings from Section [/Script/Engine.RendererSettings] File [C:/Users/Georgie/Documents/Unreal Projects/TpsGame/Saved/Config/Windows/Engine.ini]
Setting CVar [[r.GPUCrashDebugging:0]]
Setting CVar [[r.Mobile.ReflectionCaptureCompression:1]]
Setting CVar [[r.NormalMapsForStaticLighting:1]]
Setting CVar [[r.SSGI.Enable:1]]
Applying CVar settings from Section [/Script/Engine.RendererOverrideSettings] File [C:/Users/Georgie/Documents/Unreal Projects/TpsGame/Saved/Config/Windows/Engine.ini]
Applying CVar settings from Section [/Script/Engine.StreamingSettings] File [C:/Users/Georgie/Documents/Unreal Projects/TpsGame/Saved/Config/Windows/Engine.ini]
Setting CVar [[s.MinBulkDataSizeForAsyncLoading:131072]]
Setting CVar [[s.AsyncLoadingThreadEnabled:0]]
Setting CVar [[s.EventDrivenLoaderEnabled:1]]
Setting CVar [[s.WarnIfTimeLimitExceeded:0]]
Setting CVar [[s.TimeLimitExceededMultiplier:1.5]]
Setting CVar [[s.TimeLimitExceededMinTime:0.005]]
Setting CVar [[s.UseBackgroundLevelStreaming:1]]
Setting CVar [[s.PriorityAsyncLoadingExtraTime:15.0]]
Setting CVar [[s.LevelStreamingActorsUpdateTimeLimit:5.0]]
Setting CVar [[s.PriorityLevelStreamingActorsUpdateExtraTime:5.0]]
Setting CVar [[s.LevelStreamingComponentsRegistrationGranularity:10]]
Setting CVar [[s.UnregisterComponentsTimeLimit:1.0]]
Setting CVar [[s.LevelStreamingComponentsUnregistrationGranularity:5]]
Setting CVar [[s.FlushStreamingOnExit:1]]
Applying CVar settings from Section [/Script/Engine.GarbageCollectionSettings] File [C:/Users/Georgie/Documents/Unreal Projects/TpsGame/Saved/Config/Windows/Engine.ini]
Setting CVar [[gc.MaxObjectsNotConsideredByGC:1]]
Setting CVar [[gc.SizeOfPermanentObjectPool:0]]
Setting CVar [[gc.FlushStreamingOnGC:0]]
Setting CVar [[gc.NumRetriesBeforeForcingGC:10]]
Setting CVar [[gc.AllowParallelGC:1]]
Setting CVar [[gc.TimeBetweenPurgingPendingKillObjects:61.1]]
Setting CVar [[gc.MaxObjectsInEditor:25165824]]
Setting CVar [[gc.IncrementalBeginDestroyEnabled:1]]
Setting CVar [[gc.CreateGCClusters:1]]
Setting CVar [[gc.MinGCClusterSize:5]]
Setting CVar [[gc.ActorClusteringEnabled:0]]
Setting CVar [[gc.BlueprintClusteringEnabled:0]]
Setting CVar [[gc.UseDisregardForGCOnDedicatedServers:0]]
Setting CVar [[gc.MultithreadedDestructionEnabled:1]]
Applying CVar settings from Section [/Script/Engine.NetworkSettings] File [C:/Users/Georgie/Documents/Unreal Projects/TpsGame/Saved/Config/Windows/Engine.ini]
Applying CVar settings from Section [/Script/UnrealEd.CookerSettings] File [C:/Users/Georgie/Documents/Unreal Projects/TpsGame/Saved/Config/Windows/Engine.ini]
Applying CVar settings from Section [ViewDistanceQuality@3] File [C:/Users/Georgie/Documents/Unreal Projects/TpsGame/Saved/Config/Windows/Scalability.ini]
Setting CVar [[r.SkeletalMeshLODBias:0]]
Setting CVar [[r.ViewDistanceScale:1.0]]
Applying CVar settings from Section [AntiAliasingQuality@3] File [C:/Users/Georgie/Documents/Unreal Projects/TpsGame/Saved/Config/Windows/Scalability.ini]
Setting CVar [[r.PostProcessAAQuality:4]]
Applying CVar settings from Section [ShadowQuality@3] File [C:/Users/Georgie/Documents/Unreal Projects/TpsGame/Saved/Config/Windows/Scalability.ini]
Setting CVar [[r.LightFunctionQuality:1]]
Setting CVar [[r.ShadowQuality:5]]
Setting CVar [[r.Shadow.CSM.MaxCascades:10]]
Setting CVar [[r.Shadow.MaxResolution:2048]]
Setting CVar [[r.Shadow.MaxCSMResolution:2048]]
Setting CVar [[r.Shadow.RadiusThreshold:0.01]]
Setting CVar [[r.Shadow.DistanceScale:1.0]]
Setting CVar [[r.Shadow.CSM.TransitionScale:1.0]]
Setting CVar [[r.Shadow.PreShadowResolutionFactor:1.0]]
Setting CVar [[r.DistanceFieldShadowing:1]]
Setting CVar [[r.DistanceFieldAO:1]]
Setting CVar [[r.AOQuality:2]]
Setting CVar [[r.VolumetricFog:1]]
Setting CVar [[r.VolumetricFog.GridPixelSize:8]]
Setting CVar [[r.VolumetricFog.GridSizeZ:128]]
Setting CVar [[r.VolumetricFog.HistoryMissSupersampleCount:4]]
Setting CVar [[r.LightMaxDrawDistanceScale:1]]
Setting CVar [[r.CapsuleShadows:1]]
Applying CVar settings from Section [PostProcessQuality@3] File [C:/Users/Georgie/Documents/Unreal Projects/TpsGame/Saved/Config/Windows/Scalability.ini]
Setting CVar [[r.MotionBlurQuality:4]]
Setting CVar [[r.AmbientOcclusionMipLevelFactor:0.4]]
Setting CVar [[r.AmbientOcclusionMaxQuality:100]]
Setting CVar [[r.AmbientOcclusionLevels:-1]]
Setting CVar [[r.AmbientOcclusionRadiusScale:1.0]]
Setting CVar [[r.DepthOfFieldQuality:2]]
Setting CVar [[r.RenderTargetPoolMin:400]]
Setting CVar [[r.LensFlareQuality:2]]
Setting CVar [[r.SceneColorFringeQuality:1]]
Setting CVar [[r.EyeAdaptationQuality:2]]
Setting CVar [[r.BloomQuality:5]]
Setting CVar [[r.FastBlurThreshold:100]]
Setting CVar [[r.Upscale.Quality:3]]
Setting CVar [[r.Tonemapper.GrainQuantization:1]]
Setting CVar [[r.LightShaftQuality:1]]
Setting CVar [[r.Filter.SizeScale:1]]
Setting CVar [[r.Tonemapper.Quality:5]]
Setting CVar [[r.DOF.Gather.AccumulatorQuality:1        ; higher gathering accumulator quality]]
Setting CVar [[r.DOF.Gather.PostfilterMethod:1          ; Median3x3 postfilering method]]
Setting CVar [[r.DOF.Gather.EnableBokehSettings:0       ; no bokeh simulation when gathering]]
Setting CVar [[r.DOF.Gather.RingCount:4                 ; medium number of samples when gathering]]
Setting CVar [[r.DOF.Scatter.ForegroundCompositing:1    ; additive foreground scattering]]
Setting CVar [[r.DOF.Scatter.BackgroundCompositing:2    ; additive background scattering]]
Setting CVar [[r.DOF.Scatter.EnableBokehSettings:1      ; bokeh simulation when scattering]]
Setting CVar [[r.DOF.Scatter.MaxSpriteRatio:0.1         ; only a maximum of 10% of scattered bokeh]]
Setting CVar [[r.DOF.Recombine.Quality:1                ; cheap slight out of focus]]
Setting CVar [[r.DOF.Recombine.EnableBokehSettings:0    ; no bokeh simulation on slight out of focus]]
Setting CVar [[r.DOF.TemporalAAQuality:1                ; more stable temporal accumulation]]
Setting CVar [[r.DOF.Kernel.MaxForegroundRadius:0.025]]
Setting CVar [[r.DOF.Kernel.MaxBackgroundRadius:0.025]]
Applying CVar settings from Section [TextureQuality@3] File [C:/Users/Georgie/Documents/Unreal Projects/TpsGame/Saved/Config/Windows/Scalability.ini]
Setting CVar [[r.Streaming.MipBias:0]]
Setting CVar [[r.Streaming.AmortizeCPUToGPUCopy:0]]
Setting CVar [[r.Streaming.MaxNumTexturesToStreamPerFrame:0]]
Setting CVar [[r.Streaming.Boost:1]]
Setting CVar [[r.MaxAnisotropy:8]]
Setting CVar [[r.VT.MaxAnisotropy:8]]
Setting CVar [[r.Streaming.LimitPoolSizeToVRAM:0]]
Setting CVar [[r.Streaming.PoolSize:1000]]
Setting CVar [[r.Streaming.MaxEffectiveScreenSize:0]]
Applying CVar settings from Section [EffectsQuality@3] File [C:/Users/Georgie/Documents/Unreal Projects/TpsGame/Saved/Config/Windows/Scalability.ini]
Setting CVar [[r.TranslucencyLightingVolumeDim:64]]
Setting CVar [[r.RefractionQuality:2]]
Setting CVar [[r.SSR.Quality:3]]
Setting CVar [[r.SSR.HalfResSceneColor:0]]
Setting CVar [[r.SceneColorFormat:4]]
Setting CVar [[r.DetailMode:2]]
Setting CVar [[r.TranslucencyVolumeBlur:1]]
Setting CVar [[r.MaterialQualityLevel:1 ; High quality]]
Setting CVar [[r.AnisotropicMaterials:1]]
Setting CVar [[r.SSS.Scale:1]]
Setting CVar [[r.SSS.SampleSet:2]]
Setting CVar [[r.SSS.Quality:1]]
Setting CVar [[r.SSS.HalfRes:0]]
Setting CVar [[r.SSGI.Quality:3]]
Setting CVar [[r.EmitterSpawnRateScale:1.0]]
Setting CVar [[r.ParticleLightQuality:2]]
Setting CVar [[r.SkyAtmosphere.AerialPerspectiveLUT.FastApplyOnOpaque:1 ; Always have FastSkyLUT 1 in this case to avoid wrong sky]]
Setting CVar [[r.SkyAtmosphere.AerialPerspectiveLUT.SampleCountMaxPerSlice:4]]
Setting CVar [[r.SkyAtmosphere.AerialPerspectiveLUT.DepthResolution:16.0]]
Setting CVar [[r.SkyAtmosphere.FastSkyLUT:1]]
Setting CVar [[r.SkyAtmosphere.FastSkyLUT.SampleCountMin:4.0]]
Setting CVar [[r.SkyAtmosphere.FastSkyLUT.SampleCountMax:128.0]]
Setting CVar [[r.SkyAtmosphere.SampleCountMin:4.0]]
Setting CVar [[r.SkyAtmosphere.SampleCountMax:128.0]]
Setting CVar [[r.SkyAtmosphere.TransmittanceLUT.UseSmallFormat:0]]
Setting CVar [[r.SkyAtmosphere.TransmittanceLUT.SampleCount:10.0]]
Setting CVar [[r.SkyAtmosphere.MultiScatteringLUT.SampleCount:15.0]]
Setting CVar [[r.SkyLight.RealTimeReflectionCapture:1]]
Applying CVar settings from Section [FoliageQuality@3] File [C:/Users/Georgie/Documents/Unreal Projects/TpsGame/Saved/Config/Windows/Scalability.ini]
Setting CVar [[foliage.DensityScale:1.0]]
Setting CVar [[grass.DensityScale:1.0]]
Applying CVar settings from Section [ShadingQuality@3] File [C:/Users/Georgie/Documents/Unreal Projects/TpsGame/Saved/Config/Windows/Scalability.ini]
Setting CVar [[r.HairStrands.SkyLighting.IntegrationType:2]]
Setting CVar [[r.HairStrands.SkyAO.SampleCount:4]]
Setting CVar [[r.HairStrands.Visibility.MSAA.SamplePerPixel:4]]
Selected Device Profile: [Windows]
Applying CVar settings loaded from the selected device profile: [Windows]
Platform has ~ 16 GB [17055453184 / 17179869184 / 16], which maps to Larger [LargestMinGB=32, LargerMinGB=12, DefaultMinGB=8, SmallerMinGB=6, SmallestMinGB=0)
Going up to parent DeviceProfile []
Applying CVar settings from Section [ViewDistanceQuality@3] File [C:/Users/Georgie/Documents/Unreal Projects/TpsGame/Saved/Config/Windows/Scalability.ini]
Setting CVar [[r.SkeletalMeshLODBias:0]]
Setting CVar [[r.ViewDistanceScale:1.0]]
Applying CVar settings from Section [AntiAliasingQuality@3] File [C:/Users/Georgie/Documents/Unreal Projects/TpsGame/Saved/Config/Windows/Scalability.ini]
Setting CVar [[r.PostProcessAAQuality:4]]
Applying CVar settings from Section [ShadowQuality@3] File [C:/Users/Georgie/Documents/Unreal Projects/TpsGame/Saved/Config/Windows/Scalability.ini]
Setting CVar [[r.LightFunctionQuality:1]]
Setting CVar [[r.ShadowQuality:5]]
Setting CVar [[r.Shadow.CSM.MaxCascades:10]]
Setting CVar [[r.Shadow.MaxResolution:2048]]
Setting CVar [[r.Shadow.MaxCSMResolution:2048]]
Setting CVar [[r.Shadow.RadiusThreshold:0.01]]
Setting CVar [[r.Shadow.DistanceScale:1.0]]
Setting CVar [[r.Shadow.CSM.TransitionScale:1.0]]
Setting CVar [[r.Shadow.PreShadowResolutionFactor:1.0]]
Setting CVar [[r.DistanceFieldShadowing:1]]
Setting CVar [[r.DistanceFieldAO:1]]
Setting CVar [[r.AOQuality:2]]
Setting CVar [[r.VolumetricFog:1]]
Setting CVar [[r.VolumetricFog.GridPixelSize:8]]
Setting CVar [[r.VolumetricFog.GridSizeZ:128]]
Setting CVar [[r.VolumetricFog.HistoryMissSupersampleCount:4]]
Setting CVar [[r.LightMaxDrawDistanceScale:1]]
Setting CVar [[r.CapsuleShadows:1]]
Applying CVar settings from Section [PostProcessQuality@3] File [C:/Users/Georgie/Documents/Unreal Projects/TpsGame/Saved/Config/Windows/Scalability.ini]
Setting CVar [[r.MotionBlurQuality:4]]
Setting CVar [[r.AmbientOcclusionMipLevelFactor:0.4]]
Setting CVar [[r.AmbientOcclusionMaxQuality:100]]
Setting CVar [[r.AmbientOcclusionLevels:-1]]
Setting CVar [[r.AmbientOcclusionRadiusScale:1.0]]
Setting CVar [[r.DepthOfFieldQuality:2]]
Setting CVar [[r.RenderTargetPoolMin:400]]
Setting CVar [[r.LensFlareQuality:2]]
Setting CVar [[r.SceneColorFringeQuality:1]]
Setting CVar [[r.EyeAdaptationQuality:2]]
Setting CVar [[r.BloomQuality:5]]
Setting CVar [[r.FastBlurThreshold:100]]
Setting CVar [[r.Upscale.Quality:3]]
Setting CVar [[r.Tonemapper.GrainQuantization:1]]
Setting CVar [[r.LightShaftQuality:1]]
Setting CVar [[r.Filter.SizeScale:1]]
Setting CVar [[r.Tonemapper.Quality:5]]
Setting CVar [[r.DOF.Gather.AccumulatorQuality:1        ; higher gathering accumulator quality]]
Setting CVar [[r.DOF.Gather.PostfilterMethod:1          ; Median3x3 postfilering method]]
Setting CVar [[r.DOF.Gather.EnableBokehSettings:0       ; no bokeh simulation when gathering]]
Setting CVar [[r.DOF.Gather.RingCount:4                 ; medium number of samples when gathering]]
Setting CVar [[r.DOF.Scatter.ForegroundCompositing:1    ; additive foreground scattering]]
Setting CVar [[r.DOF.Scatter.BackgroundCompositing:2    ; additive background scattering]]
Setting CVar [[r.DOF.Scatter.EnableBokehSettings:1      ; bokeh simulation when scattering]]
Setting CVar [[r.DOF.Scatter.MaxSpriteRatio:0.1         ; only a maximum of 10% of scattered bokeh]]
Setting CVar [[r.DOF.Recombine.Quality:1                ; cheap slight out of focus]]
Setting CVar [[r.DOF.Recombine.EnableBokehSettings:0    ; no bokeh simulation on slight out of focus]]
Setting CVar [[r.DOF.TemporalAAQuality:1                ; more stable temporal accumulation]]
Setting CVar [[r.DOF.Kernel.MaxForegroundRadius:0.025]]
Setting CVar [[r.DOF.Kernel.MaxBackgroundRadius:0.025]]
Applying CVar settings from Section [TextureQuality@3] File [C:/Users/Georgie/Documents/Unreal Projects/TpsGame/Saved/Config/Windows/Scalability.ini]
Setting CVar [[r.Streaming.MipBias:0]]
Setting CVar [[r.Streaming.AmortizeCPUToGPUCopy:0]]
Setting CVar [[r.Streaming.MaxNumTexturesToStreamPerFrame:0]]
Setting CVar [[r.Streaming.Boost:1]]
Setting CVar [[r.MaxAnisotropy:8]]
Setting CVar [[r.VT.MaxAnisotropy:8]]
Setting CVar [[r.Streaming.LimitPoolSizeToVRAM:0]]
Setting CVar [[r.Streaming.PoolSize:1000]]
Setting CVar [[r.Streaming.MaxEffectiveScreenSize:0]]
Applying CVar settings from Section [EffectsQuality@3] File [C:/Users/Georgie/Documents/Unreal Projects/TpsGame/Saved/Config/Windows/Scalability.ini]
Setting CVar [[r.TranslucencyLightingVolumeDim:64]]
Setting CVar [[r.RefractionQuality:2]]
Setting CVar [[r.SSR.Quality:3]]
Setting CVar [[r.SSR.HalfResSceneColor:0]]
Setting CVar [[r.SceneColorFormat:4]]
Setting CVar [[r.DetailMode:2]]
Setting CVar [[r.TranslucencyVolumeBlur:1]]
Setting CVar [[r.MaterialQualityLevel:1 ; High quality]]
Setting CVar [[r.AnisotropicMaterials:1]]
Setting CVar [[r.SSS.Scale:1]]
Setting CVar [[r.SSS.SampleSet:2]]
Setting CVar [[r.SSS.Quality:1]]
Setting CVar [[r.SSS.HalfRes:0]]
Setting CVar [[r.SSGI.Quality:3]]
Setting CVar [[r.EmitterSpawnRateScale:1.0]]
Setting CVar [[r.ParticleLightQuality:2]]
Setting CVar [[r.SkyAtmosphere.AerialPerspectiveLUT.FastApplyOnOpaque:1 ; Always have FastSkyLUT 1 in this case to avoid wrong sky]]
Setting CVar [[r.SkyAtmosphere.AerialPerspectiveLUT.SampleCountMaxPerSlice:4]]
Setting CVar [[r.SkyAtmosphere.AerialPerspectiveLUT.DepthResolution:16.0]]
Setting CVar [[r.SkyAtmosphere.FastSkyLUT:1]]
Setting CVar [[r.SkyAtmosphere.FastSkyLUT.SampleCountMin:4.0]]
Setting CVar [[r.SkyAtmosphere.FastSkyLUT.SampleCountMax:128.0]]
Setting CVar [[r.SkyAtmosphere.SampleCountMin:4.0]]
Setting CVar [[r.SkyAtmosphere.SampleCountMax:128.0]]
Setting CVar [[r.SkyAtmosphere.TransmittanceLUT.UseSmallFormat:0]]
Setting CVar [[r.SkyAtmosphere.TransmittanceLUT.SampleCount:10.0]]
Setting CVar [[r.SkyAtmosphere.MultiScatteringLUT.SampleCount:15.0]]
Setting CVar [[r.SkyLight.RealTimeReflectionCapture:1]]
Applying CVar settings from Section [FoliageQuality@3] File [C:/Users/Georgie/Documents/Unreal Projects/TpsGame/Saved/Config/Windows/Scalability.ini]
Setting CVar [[foliage.DensityScale:1.0]]
Setting CVar [[grass.DensityScale:1.0]]
Applying CVar settings from Section [ShadingQuality@3] File [C:/Users/Georgie/Documents/Unreal Projects/TpsGame/Saved/Config/Windows/Scalability.ini]
Setting CVar [[r.HairStrands.SkyLighting.IntegrationType:2]]
Setting CVar [[r.HairStrands.SkyAO.SampleCount:4]]
Setting CVar [[r.HairStrands.Visibility.MSAA.SamplePerPixel:4]]
Applying CVar settings from Section [Startup] File [../../../Engine/Config/ConsoleVariables.ini]
Setting CVar [[net.UseAdaptiveNetUpdateFrequency:0]]
Setting CVar [[p.chaos.AllowCreatePhysxBodies:1]]
Setting CVar [[fx.SkipVectorVMBackendOptimizations:1]]
Applying CVar settings from Section [ConsoleVariables] File [C:/Users/Georgie/Documents/Unreal Projects/TpsGame/Saved/Config/Windows/Engine.ini]
Applying CVar settings from Section [ConsoleVariables] File [C:/Users/Georgie/Documents/Unreal Projects/TpsGame/Saved/Config/Windows/Editor.ini]
Computer: ASUSGAMINGPC
User: Georgie
CPU Page size=4096, Cores=6
High frequency timer resolution =10.000000 MHz
Memory total: Physical=15.9GB (16GB approx)
Platform Memory Stats for Windows
Process Physical Memory: 139.80 MB used, 139.80 MB peak
Process Virtual Memory: 111.06 MB used, 111.06 MB peak
Physical Memory: 9645.41 MB used,  6619.94 MB free, 16265.35 MB total
Virtual Memory: 134208320.00 MB used,  9405.35 MB free, 134217728.00 MB total
WindowsPlatformFeatures enabled
Physics initialised using underlying interface: PhysX
Using OS detected language (en-US).
Using OS detected locale (el-GR).
No specific localization for 'en-US' exists, so the 'en' localization will be used.
Loaded TargetPlatform 'AllDesktop'
Loaded TargetPlatform 'Android'
Loaded TargetPlatform 'Android_ASTC'
Loaded TargetPlatform 'Android_DXT'
Loaded TargetPlatform 'Android_ETC2'
Loaded TargetPlatform 'AndroidClient'
Loaded TargetPlatform 'Android_ASTCClient'
Loaded TargetPlatform 'Android_DXTClient'
Loaded TargetPlatform 'Android_ETC2Client'
Loaded TargetPlatform 'Android_Multi'
Loaded TargetPlatform 'Android_MultiClient'
Loaded TargetPlatform 'IOSClient'
Loaded TargetPlatform 'IOS'
Loaded TargetPlatform 'Linux'
Loaded TargetPlatform 'LinuxNoEditor'
Loaded TargetPlatform 'LinuxClient'
Loaded TargetPlatform 'LinuxServer'
Loaded TargetPlatform 'LinuxAArch64NoEditor'
Loaded TargetPlatform 'LinuxAArch64Client'
Loaded TargetPlatform 'LinuxAArch64Server'
Loaded TargetPlatform 'Lumin'
Loaded TargetPlatform 'LuminClient'
Loaded TargetPlatform 'MacNoEditor'
Loaded TargetPlatform 'Mac'
Loaded TargetPlatform 'MacClient'
Loaded TargetPlatform 'MacServer'
Loaded TargetPlatform 'TVOSClient'
Loaded TargetPlatform 'TVOS'
Loaded TargetPlatform 'WindowsNoEditor'
Loaded TargetPlatform 'Windows'
Loaded TargetPlatform 'WindowsClient'
Loaded TargetPlatform 'WindowsServer'
Building Assets For Windows
Lib vorbis DLL was dynamically loaded.
Oodle Texture 2.9.0 init RDO Off
Ray tracing is disabled. Reason: r.RayTracing=0.
Max Cache Size: 512 MB
Loaded boot cache 0.07s 94MB C:/Users/Georgie/AppData/Local/UnrealEngine/4.27/DerivedDataCache/Boot.ddc.
Loaded Boot cache: C:/Users/Georgie/AppData/Local/UnrealEngine/4.27/DerivedDataCache/Boot.ddc
FDerivedDataBackendGraph:  Pak pak cache file ../../../../../../Users/Georgie/Documents/Unreal Projects/TpsGame/DerivedDataCache/DDC.ddp not found, will not use a pak cache.
Unable to find inner node Pak for hierarchical cache Hierarchy.
FDerivedDataBackendGraph:  CompressedPak pak cache file ../../../../../../Users/Georgie/Documents/Unreal Projects/TpsGame/DerivedDataCache/Compressed.ddp not found, will not use a pak cache.
Unable to find inner node CompressedPak for hierarchical cache Hierarchy.
Pak cache opened for reading ../../../Engine/DerivedDataCache/Compressed.ddp.
FDerivedDataBackendGraph:  EnterprisePak pak cache file ../../../Enterprise/DerivedDataCache/Compressed.ddp not found, will not use a pak cache.
Unable to find inner node EnterprisePak for hierarchical cache Hierarchy.
Speed tests for C:/Users/Georgie/AppData/Local/UnrealEngine/Common/DerivedDataCache took 0.01 seconds
Performance to C:/Users/Georgie/AppData/Local/UnrealEngine/Common/DerivedDataCache: Latency=0.02ms. RandomReadSpeed=1264.19MBs, RandomWriteSpeed=113.35MBs. Assigned SpeedClass 'Local'
Using Local data cache path C:/Users/Georgie/AppData/Local/UnrealEngine/Common/DerivedDataCache: Writable
Shared data cache path not found in *engine.ini, will not use an Shared cache.
Unable to find inner node Shared for hierarchical cache Hierarchy.
FAssetRegistry took 0.0015 seconds to start up
Selected Device Profile: [Windows]
Active device profile: [0000020722DA0700][000002071C4C4F40 49] Windows
Profiles: [0000020722DA0700][000002071C4C4F40 49] Windows, [0000020722D67700][0000020719913080 49] WindowsNoEditor, [0000020722DA3300][00000207199171C0 49] WindowsServer, [0000020722D64F00][000002071991F340 49] WindowsClient, [0000020722DA3500][00000207199234C0 49] IOS, [0000020722D47F00][0000020719927640 49] iPadAir, [0000020722D67B00][000002071DA037C0 49] iPadAir2, [0000020722D0C500][000002071DA11A80 49] IPadPro, [0000020722D0C600][000002071DA07AC0 49] iPadAir3, [0000020722D44100][000002071DA1A0C0 49] iPadAir4, [0000020722D0EC00][000002071DA1E240 49] iPadMini2, [0000020722D46500][000002071DA223C0 49] iPadMini3, [0000020722D0F400][000002071DA26540 49] iPadMini4, [0000020722D44F00][000002071DA2A6C0 49] iPadMini5, [0000020722D07E00][000002071DA32980 49] iPhone6, [0000020722D07F00][000002071DA2E9C0 49] iPodTouch6, [0000020722DA3900][000002071DA3AC80 49] iPhone7, [0000020722DA2100][000002071DA36CC0 49] iPodTouch7, [0000020722D04400][000002071DA3EE40 49] iPhone5S, [0000020722D0FD00][000002071DA42FC0 49] iPhone6Plus, [0000020722DA3400][000002071991B100 49] iPhone6S, [0000020722D0E000][000002071DA47240 49] iPhone6SPlus, [0000020722DA0900][000002071DA4B380 49] iPhone7Plus, [0000020722D0CE00][000002071DA53500 49] iPhoneSE, [0000020722DA3100][000002071DA57680 49] iPhone8, [0000020722D0E400][000002071DA5B800 49] iPhone8Plus, [0000020722DA3A00][000002071DA5F980 49] iPhoneX, [0000020722D0FE00][000002071DA63B00 49] iPhoneXS, [0000020722DA1500][000002071DA66100 49] iPhoneXSMax, [0000020722D0E500][000002071DA6A280 49] iPhoneXR, [0000020722DA2A00][000002071E45E400 49] iPhone11, [0000020722D0FA00][000002071E462580 49] iPhone11Pro, [0000020722DA0F00][000002071E466700 49] iPhone11ProMax, [0000020722D0E300][000002071E46A880 49] iPhoneSE2, [0000020722DA1700][000002071E46EA00 49] iPhone12Mini, [0000020722D0C700][000002071E472B80 49] iPhone12, [0000020722DA0300][000002071E476D00 49] iPhone12Pro, [0000020722D0F500][000002071E47AE80 49] iPhone12ProMax, [0000020722DA0B00][000002071E47F000 49] iPadPro105, [0000020722D0DB00][000002071E483180 49] iPadPro129, [0000020722DA0200][000002071DA4F2C0 49] iPadPro97, [0000020722D0E100][000002071E487400 49] iPadPro2_129, [0000020722DA0D00][000002071E48B540 49] iPad5, [0000020722D0F000][000002071E4936C0 49] iPad6, [0000020722DA2C00][000002071E497840 49] iPad7, [0000020722D0EE00][000002071E49B9C0 49] iPad8, [0000020722DA1900][000002071E49FB40 49] iPadPro11, [0000020722D0FF00][000002071E4A2140 49] iPadPro2_11, [0000020722DA1600][000002071E4A62C0 49] iPadPro3_129, [0000020722D0E700][000002071E4AA440 49] iPadPro4_129, [0000020722DA2600][000002071E4AE5C0 49] AppleTV, [0000020722D0EB00][000002071E4B2740 49] AppleTV4K, [0000020722DA1B00][000002071E4B68C0 49] TVOS, [0000020722D0C900][000002071E4BAA40 49] Mac, [0000020722DA2700][000002071E4BEBC0 49] MacClient, [0000020722D0EF00][000002071E4C2D40 49] MacNoEditor, [0000020722DA3B00][000002071E4C6EC0 49] MacServer, [0000020722D0C400][000002071E4CB040 49] Linux, [0000020722DA2E00][000002071E4CF1C0 49] LinuxAArch64, [0000020722D0D500][000002071E4D3340 49] LinuxNoEditor, [0000020722DA2B00][000002071E48F480 49] LinuxAArch64NoEditor, [0000020722D0F600][000002071E4D75C0 49] LinuxClient, [0000020722DA2D00][000002071E4DB700 49] LinuxAArch64Client, [0000020722D0CB00][000002071E4DF840 49] LinuxServer, [0000020722DA0400][000002071E4E79C0 49] LinuxAArch64Server, [0000020722D0FC00][000002071E4EBB40 49] Android, [0000020722D47A00][000002071E4EE140 49] Android_Low, [0000020722D05B00][000002071E4F22C0 49] Android_Mid, [0000020722D47000][000002071E4F6440 49] Android_High, [0000020722D06300][000002071E4FA5C0 49] Android_Default, [0000020722D46000][000002071E4FE740 49] Android_Adreno4xx, [0000020722D04100][000002071E5028C0 49] Android_Adreno5xx_Low, [0000020722D44B00][000002071E506A40 49] Android_Adreno5xx, [0000020722D05800][000002071E50ABC0 49] Android_Adreno6xx, [0000020722D45100][000002071E50ED40 49] Android_Adreno6xx_Vulkan, [0000020722D04800][000002071E512EC0 49] Android_Mali_T6xx, [0000020722D47600][000002071E517040 49] Android_Mali_T7xx, [0000020722D04D00][000002071E51B1C0 49] Android_Mali_T8xx, [0000020722D47C00][000002071E51F340 49] Android_Mali_G71, [0000020722D05500][000002071E5234C0 49] Android_Mali_G72, [0000020722D47E00][000002071E4E3600 49] Android_Mali_G72_Vulkan, [0000020722D07D00][000002071E527740 49] Android_Mali_G76, [0000020722D47900][000002071E52B880 49] Android_Mali_G76_Vulkan, [0000020722D07600][000002071E52F9C0 49] Android_Mali_G77, [0000020722D46200][000002071E537B40 49] Android_Mali_G77_Vulkan, [0000020722D07800][000002071E53A140 49] Android_Mali_G78, [0000020722D44A00][000002071E53E2C0 49] Android_Mali_G78_Vulkan, [0000020722D07400][000002071E542440 49] Android_Mali_G710, [0000020722D45400][000002071E5465C0 49] Android_Mali_G710_Vulkan, [0000020722D04600][000002071E54A740 49] Android_Vulkan_SM5, [0000020722D46400][000002071E54E8C0 49] Android_PowerVR_G6xxx, [0000020722D04E00][000002071E552A40 49] Android_PowerVR_GT7xxx, [0000020722D44200][000002071E556BC0 49] Android_PowerVR_GE8xxx, [0000020722D04700][000002071E55AD40 49] Android_PowerVR_GM9xxx, [0000020722D46100][000002071E55EEC0 49] Android_PowerVR_GM9xxx_Vulkan, [0000020722D0E600][000002071E563040 49] Android_TegraK1, [0000020722D46A00][000002071E5671C0 49] Android_Unknown_Vulkan, [0000020722D0D400][000002071E56B340 49] Lumin, [0000020722D45300][000002071E56F4C0 49] Lumin_Desktop, [0000020722D0CC00][000002071E573640 49] HoloLens, 
Using QuadricMeshReduction for automatic static mesh reduction
Using SimplygonMeshReduction for automatic skeletal mesh reduction
Using ProxyLODMeshReduction for automatic mesh merging
No distributed automatic mesh merging module available
No distributed automatic mesh merging module available
TpsGame 1.0.0, NetCL: 17155196, EngineNetVer: 17, GameNetVer: 0 (Checksum: 2278266066)
PokeAHoleMaterial loaded successfully
Failed to load '/Game/TopDownCPP/TopDownOverview': Can't find file.
Failed to load '/Game/TopDownCPP/TopDownOverview': Can't find file.
Failed to find object 'Class /Game/TopDownCPP/TopDownOverview.TopDownOverview_C'
Loaded 0 collections in 0.001996 seconds
Scanning file cache for directory 'C:/Users/Georgie/Documents/Unreal Projects/TpsGame/Saved/Collections/' took 0.00s
Scanning file cache for directory 'C:/Users/Georgie/Documents/Unreal Projects/TpsGame/Content/Developers/Georgie/Collections/' took 0.00s
Scanning file cache for directory 'C:/Users/Georgie/Documents/Unreal Projects/TpsGame/Content/Collections/' took 0.00s
Fixed up redirectors for 0 collections in 0.000002 seconds (updated 0 objects)
Niagara Debugger Client Initialized | Session: EBB7020B4BC71D5DC74804B175178E7F | Instance: EC3DD12E4A969D47327784880478EC51 (ASUSGAMINGPC-29380).
Using Python 3.7.7


Script Stack (0 frames):

FPlatformStackWalk::StackWalkAndDump -  0.069 s
=== Handled ensure: ===

Ensure condition failed: this->IsBound() [File:C:\Program Files\Epic Games\UE_4.27\Engine\Source\Runtime\Core\Public\Delegates/DelegateSignatureImpl.inl] [Line: 1028]
Unable to bind delegate to 'CollisionSphereHit' (function might not be marked as a UFUNCTION or object may be pending kill)
Stack: 
[Callstack] 0x00007ffc97194608 UE4Editor-TpsGame.dll!DispatchCheckVerify<bool,<lambda_e93d7c8d15003e8b5fb4aeb57bd35861> >() [C:\Program Files\Epic Games\UE_4.27\Engine\Source\Runtime\Core\Public\Misc\AssertionMacros.h:164]
[Callstack] 0x00007ffc97187f2a UE4Editor-TpsGame.dll!AProjectileBase::AProjectileBase() [C:\Users\Georgie\Documents\Unreal Projects\TpsGame\Source\TpsGame\ProjectileBase.cpp:15]
[Callstack] 0x00007ffcb69161d3 UE4Editor-CoreUObject.dll!UnknownFunction []
[Callstack] 0x00007ffcb6c38faf UE4Editor-CoreUObject.dll!UnknownFunction []
[Callstack] 0x00007ffcb6c15411 UE4Editor-CoreUObject.dll!UnknownFunction []
[Callstack] 0x00007ffcb6adddc5 UE4Editor-CoreUObject.dll!UnknownFunction []
[Callstack] 0x00007ffcb72f1bea UE4Editor-Core.dll!UnknownFunction []
[Callstack] 0x00007ffcb73115a3 UE4Editor-Core.dll!UnknownFunction []
[Callstack] 0x00007ffcbbf26433 UE4Editor-Projects.dll!UnknownFunction []
[Callstack] 0x00007ffcbbf2674f UE4Editor-Projects.dll!UnknownFunction []
[Callstack] 0x00007ff6ffce5642 UE4Editor-Cmd.exe!UnknownFunction []
[Callstack] 0x00007ff6ffce9000 UE4Editor-Cmd.exe!UnknownFunction []
[Callstack] 0x00007ff6ffce0d2c UE4Editor-Cmd.exe!UnknownFunction []
[Callstack] 0x00007ff6ffce10ba UE4Editor-Cmd.exe!UnknownFunction []
[Callstack] 0x00007ff6ffce40dd UE4Editor-Cmd.exe!UnknownFunction []
[Callstack] 0x00007ff6ffcf5984 UE4Editor-Cmd.exe!UnknownFunction []
[Callstack] 0x00007ff6ffcf78be UE4Editor-Cmd.exe!UnknownFunction []
[Callstack] 0x00007ffd8e1426ad KERNEL32.DLL!UnknownFunction []
[Callstack] 0x00007ffd8e6aa9f8 ntdll.dll!UnknownFunction []

               SubmitErrorReport -  0.000 s
                   SendNewReport -  0.909 s
            FDebug::EnsureFailed -  0.991 s


Script Stack (0 frames):

FPlatformStackWalk::StackWalkAndDump -  0.015 s
=== Handled ensure: ===

Ensure condition failed: this->IsBound() [File:C:\Program Files\Epic Games\UE_4.27\Engine\Source\Runtime\Core\Public\Delegates/DelegateSignatureImpl.inl] [Line: 1028]
Unable to bind delegate to 'CollisionSphereBeginOverlap' (function might not be marked as a UFUNCTION or object may be pending kill)
Stack: 
[Callstack] 0x00007ffc97194558 UE4Editor-TpsGame.dll!DispatchCheckVerify<bool,<lambda_d567bd25eb1b1523da3c48ddf02a42e3> >() [C:\Program Files\Epic Games\UE_4.27\Engine\Source\Runtime\Core\Public\Misc\AssertionMacros.h:164]
[Callstack] 0x00007ffc97188119 UE4Editor-TpsGame.dll!AProjectileBase::AProjectileBase() [C:\Users\Georgie\Documents\Unreal Projects\TpsGame\Source\TpsGame\ProjectileBase.cpp:16]
[Callstack] 0x00007ffcb69161d3 UE4Editor-CoreUObject.dll!UnknownFunction []
[Callstack] 0x00007ffcb6c38faf UE4Editor-CoreUObject.dll!UnknownFunction []
[Callstack] 0x00007ffcb6c15411 UE4Editor-CoreUObject.dll!UnknownFunction []
[Callstack] 0x00007ffcb6adddc5 UE4Editor-CoreUObject.dll!UnknownFunction []
[Callstack] 0x00007ffcb72f1bea UE4Editor-Core.dll!UnknownFunction []
[Callstack] 0x00007ffcb73115a3 UE4Editor-Core.dll!UnknownFunction []
[Callstack] 0x00007ffcbbf26433 UE4Editor-Projects.dll!UnknownFunction []
[Callstack] 0x00007ffcbbf2674f UE4Editor-Projects.dll!UnknownFunction []
[Callstack] 0x00007ff6ffce5642 UE4Editor-Cmd.exe!UnknownFunction []
[Callstack] 0x00007ff6ffce9000 UE4Editor-Cmd.exe!UnknownFunction []
[Callstack] 0x00007ff6ffce0d2c UE4Editor-Cmd.exe!UnknownFunction []
[Callstack] 0x00007ff6ffce10ba UE4Editor-Cmd.exe!UnknownFunction []
[Callstack] 0x00007ff6ffce40dd UE4Editor-Cmd.exe!UnknownFunction []
[Callstack] 0x00007ff6ffcf5984 UE4Editor-Cmd.exe!UnknownFunction []
[Callstack] 0x00007ff6ffcf78be UE4Editor-Cmd.exe!UnknownFunction []
[Callstack] 0x00007ffd8e1426ad KERNEL32.DLL!UnknownFunction []
[Callstack] 0x00007ffd8e6aa9f8 ntdll.dll!UnknownFunction []

               SubmitErrorReport -  0.000 s
